Place,Name,Sex,BirthDate,Age,Country,Equipment,Division,BodyweightKg,WeightClassKg,Squat1Kg,Squat2Kg,Squat3Kg,Best3SquatKg,Bench1Kg,Bench2Kg,Bench3Kg,Best3BenchKg,Deadlift1Kg,Deadlift2Kg,Deadlift3Kg,Best3DeadliftKg,TotalKg,Event,Tested
1,Hazel Walsh,F,2002-04-03,20,Ireland,Raw,Juniors 20-23,110.25,90+,37.5,42.5,-50,42.5,32.5,37.5,-42.5,37.5,75,82.5,90,90,170,SBD,Yes
1,Helen Stoked,F,1975-08-06,,Ireland,Raw,Masters 45-49,79.95,82.5,65,-70,75,75,-42.5,45,-50,45,80,95,110,110,230,SBD,Yes
1,Mariana Dankova,F,1971-11-20,50,Ireland,Raw,Masters 50-54,66.45,67.5,45,55,60,60,32.5,-37.5,-37.5,32.5,80,90,100,100,192.5,SBD,Yes
1,Natalia White,F,1992-05-25,30,Ireland,Raw,Open,60,60,-90,90,100,100,47.5,50,55,55,85,90,97.5,97.5,252.5,SBD,Yes
1,Michelle Cosgrove,F,1990-09-19,,Ireland,Raw,Open,63.01,67.5,-85,-92.5,92.5,92.5,50,57.5,-62.5,57.5,90,100,110,110,260,SBD,Yes
1,Chloe Andrews,F,1999-05-28,23,Ireland,Wraps,Juniors 20-23,59.75,60,95,-105,-112.5,95,47.5,52.5,55,55,130,137.5,-142.5,137.5,287.5,SBD,Yes
1,Debbie Duggan,F,1981-03-14,41,Ireland,Wraps,Masters 40-44,64.5,67.5,95,105,-107.5,105,50,55,-57.5,55,135,140,145,145,305,SBD,
1,Tara McManus,F,1978-02-09,44,Ireland,Wraps,Masters 40-44,77.9,82.5,105,115,117.5,117.5,55,57.5,60,60,120,122.5,125,125,302.5,SBD,Yes
1,Miora Mara Vizinteanu,F,1977-04-25,45,Ireland,Wraps,Masters 45-49,81.4,82.5,-100,107.5,-112.5,107.5,57.5,-62.5,-65,57.5,137.5,-145,-145,137.5,302.5,SBD,Yes
1,Jacinta Smith,F,1973-08-15,,Ireland,Wraps,Masters 45-49,125.4,90+,110,125,135,135,75,-80,-80,75,140,150,162.5,162.5,372.5,SBD,Yes
1,Ellen Savage,F,1996-11-25,25,Ireland,Wraps,Open,58.4,60,75,85,95,95,40,45,-50,45,90,100,107.5,107.5,247.5,SBD,Yes
1,Rachel Curley,F,1993-05-28,29,Ireland,Wraps,Open,97.8,90+,87.5,90,95,95,42.5,47.5,52.5,52.5,110,120,132.5,132.5,280,SBD,Yes
1,Aisling O'neill,F,1983-12-15,38,Ireland,Multi-ply,Open,55.75,56,90,100,-105,100,50,-55,55,55,100,107.5,110,110,265,SBD,Yes
1,Paulina Pawlak,F,1989-04-11,33,Ireland,Raw,Open,69,75,,,,,55,-60,-60,55,,,,,55,B,Yes
1,Ben Fleming,M,2002-06-25,20,Ireland,Raw,Juniors 20-23,72.4,75,125,130,-132.5,130,75,80,-82.5,80,167.5,-175,-175,167.5,377.5,SBD,Yes
1,Pat McNamara,M,1980-04-16,42,Ireland,Raw,Masters 40-44,74.75,75,140,150,160,160,115,120,125,125,180,195,200,200,485,SBD,
1,Kevin McGrath,M,1982-08-31,40,Ireland,Raw,Masters 40-44,88.25,90,170,180,190,190,100,110,115,115,180,190,202.5,202.5,507.5,SBD,Yes
DQ,Kais Alkhaldi,M,1997-08-10,,Ireland,Raw,Open,66.25,67.5,155,165,170,170,105,110,-115,110,-220,-220,-220,,,SBD,
1,Enda Staunton,M,1983-03-28,39,Ireland,Raw,Open,82.15,82.5,155,160,165,165,90,95,-100,95,162.5,175,182.5,182.5,442.5,SBD,Yes
2,Eoin Reid,M,1998-08-07,,Ireland,Raw,Open,79.9,82.5,115,120,125,125,87.5,92.5,-97.5,92.5,140,152.5,162.5,162.5,380,SBD,Yes
1,Ryan O'Dooghue,M,1991-04-24,31,Ireland,Raw,Open,95.25,100,170,185,195,195,135,-145,-145,135,235,245,255,255,585,SBD,
1,Christy Reddan,M,1988-09-18,34,Ireland,Raw,Open,102.15,110,160,180,185,185,130,135,-140,135,210,220,-230,220,540,SBD,Yes
1,Evan Cassidy,M,2007-01-23,15,Ireland,Raw,Teen 13-15,59.5,60,75,80,85,85,50,55,-57.5,55,100,107.5,115,115,255,SBD,Yes
1,Jack O'Connor,M,2005-02-24,17,Ireland,Raw,Teen 16-17,63.35,67.5,90,100,112.5,112.5,50,62.5,65,65,150,160,175,175,352.5,SBD,Yes
1,Daniel O'Neill #1,M,2005-06-03,17,Ireland,Raw,Teen 16-17,68.65,75,-80,-87.5,87.5,87.5,55,62.5,70,70,125,132.5,140,140,297.5,SBD,
1,Matthew Monaghan,M,2006-06-13,16,Ireland,Raw,Teen 16-17,93.15,100,112.5,117.5,122.5,122.5,85,90,-95,90,145,155,162.5,162.5,375,SBD,Yes
1,Jude Spencer,M,2005-03-06,17,Ireland,Raw,Teen 16-17,113.65,125,130,135,140,140,72.5,77.5,82.5,82.5,145,157.5,170,170,392.5,SBD,Yes
2,Cian Reid,M,2006-03-14,16,Ireland,Raw,Teen 16-17,120.7,125,-75,75,-85,75,40,47.5,52.5,52.5,115,130,140,140,267.5,SBD,Yes
1,Thomas Kearns Horan,M,1999-02-02,23,Ireland,Wraps,Juniors 20-23,126.2,140,225,240,250,250,110,120,-125,120,215,225,230,230,600,SBD,Yes
1,Fin O'Riordan,M,1977-11-04,44,Ireland,Wraps,Masters 40-44,89.6,90,165,175,180,180,100,107.5,115,115,200,212.5,-220,212.5,507.5,SBD,Yes
1,William Prevost,M,1998-04-06,24,Ireland,Wraps,Open,75,75,177.5,180,182.5,182.5,117.5,122.5,127.5,127.5,-220,220,-225,220,530,SBD,Yes
1,Derek Abbott,M,1984-06-18,38,Ireland,Wraps,Open,77.25,82.5,255,-270,-280,255,162.5,170,-175,170,260,275,,275,700,SBD,
1,Damien Blackmore,M,1982-11-16,39,Ireland,Wraps,Open,87.85,90,240,255,-262.5,255,152.5,160,165,165,-245,245,257.5,257.5,677.5,SBD,
1,Eoin Rice,M,1990-08-17,32,Ireland,Wraps,Open,92.7,100,235,255,265,265,127.5,142.5,-147.5,142.5,240,255,260,260,667.5,SBD,Yes
DQ,Liam O'Connor,M,1996-10-29,25,Ireland,Wraps,Open,95.4,100,290,-302.5,,290,-160,,,,,,,,,SBD,
1,Oliver White,M,1993-01-24,29,Ireland,Wraps,Open,107.95,110,240,250,260,260,150,155,160,160,240,250,260,260,680,SBD,
1,Gavin Ryder,M,1992-09-16,,Ireland,Wraps,Open,119.1,125,275,295,310,310,165,175,185,185,260,280,290,290,785,SBD,
1,Cian Brady,M,2005-12-04,16,Ireland,Wraps,Teen 16-17,58.45,60,-100,-110,110,110,77.5,85,-90,85,120,130,-140,130,325,SBD,Yes
1,John O'Neill,M,2003-11-11,18,Ireland,Wraps,Teen 18-19,107.6,110,140,155,165,165,95,102.5,-110,102.5,145,157.5,170,170,437.5,SBD,
1,Andrew Bell,M,1986-03-16,36,Ireland,Multi-ply,Open,96.3,100,250,270,-280,270,170,190,-200,190,220,240,-250,240,700,SBD,
DQ,Samuel Colgan,M,1992-04-29,30,Ireland,Multi-ply,Open,109,110,-350,-350,,,200,215,-230,215,255,275,285,285,,SBD,
1,Barry Sheehan,M,1978-09-08,,Ireland,Raw,Masters 40-44,118.7,125,,,,,140,147.5,155,155,235,242.5,250,250,405,BD,Yes
1,Marius Lapėnas,M,1980-09-08,42,Ireland,Raw,Open,,100,,,,,210,220,-227.5,220,,,,,220,B,Yes
1,Niall Clerkin,M,2002-06-25,,Ireland,Raw,Open,73.55,75,,,,,85,90,92.5,92.5,,,,,92.5,B,Yes
1,Jozef Murarik,M,1993-06-06,,Ireland,Raw,Open,111.35,125,,,,,155,162.5,-167.5,162.5,,,,,162.5,B,Yes
1,Jamie Hogan,M,1987-07-29,35,Ireland,Raw,Open,158.3,140+,,,,,125,130,-135,130,,,,,130,B,Yes
1,Jake Murphy,M,2005-11-07,16,Ireland,Raw,Teen 16-17,66.7,67.5,,,,,100,110,-115,110,,,,,110,B,Yes
DQ,Anton Ishchenko,M,1990-09-24,,Ireland,Single-ply,Open,60.35,67.5,,,,,-102.5,-102.5,,,,,,,,B,Yes
1,Tony O'Rourke,M,1983-10-18,38,Ireland,Single-ply,Open,123.2,125,,,,,260,270,292.5,292.5,,,,,292.5,B,
1,Emma Ylitalo-James,F,1969-11-24,52,UK,Unlimited,Masters 50-54,89.95,90,,,,,260,272.5,-280,272.5,,,,,272.5,B,
1,Brian Leahy,M,1979-11-12,42,Ireland,Raw,Masters 40-44,74.3,75,,,,,,,,,160,180,202.5,202.5,202.5,D,Yes
1,Seán Hoey,M,1973-03-08,49,Ireland,Raw,Masters 45-49,99.25,100,,,,,,,,,280,300,,300,300,D,
1,Shane Keehan,M,1990-07-01,,Ireland,Single-ply,Open,79.05,82.5,,,,,,,,,180,-190,-190,180,180,D,Yes
