Place,Name,Sex,Event,Division,WeightClassKg,Equipment,BirthYear,Team,State,BodyweightKg,Squat1Kg,Squat2Kg,Squat3Kg,Best3SquatKg,Bench1Kg,Bench2Kg,Bench3Kg,Best3BenchKg,Deadlift1Kg,Deadlift2Kg,Deadlift3Kg,Best3DeadliftKg,TotalKg,Age,BirthDate
1,Brennan Fallon,F,SBD,F-JV,43,Single-ply,2003,,LA,42.4,-97.5,97.5,102.5,102.5,52.5,55,-60,55,92.5,107.5,110,110,267.5,,
2,Andrecia Lewis,F,SBD,F-JV,43,Single-ply,2002,West Monroe High School,LA,42.55,-92.5,92.5,97.5,97.5,42.5,50,52.5,52.5,92.5,100,105,105,255,,
3,Chloe Campbell,F,SBD,F-JV,43,Single-ply,2004,,LA,42.65,-70,70,80,80,37.5,42.5,47.5,47.5,75,85,92.5,92.5,220,,
1,Lexie Livaudais,F,SBD,F-JV,47,Single-ply,2003,,LA,46,92.5,100,102.5,102.5,45,50,-52.5,50,92.5,-97.5,-97.5,92.5,245,,
2,Mackenzie Spell,F,SBD,F-JV,47,Single-ply,2004,Covington Powerlifting,LA,45.2,75,85,-95,85,37.5,-45,45,45,85,-95,102.5,102.5,232.5,,
3,Abigail Ramsey,F,SBD,F-JV,47,Single-ply,2004,,WI,46.65,80,90,100,100,35,40,-42.5,40,75,85,92.5,92.5,232.5,,
4,Ashlee Hayner,F,SBD,F-JV,47,Single-ply,2002,West Monroe High School,LA,46.75,80,-87.5,87.5,87.5,35,-42.5,42.5,42.5,80,87.5,92.5,92.5,222.5,,
5,Mallory Guillie,F,SBD,F-JV,47,Single-ply,2004,Covington Powerlifting,LA,43.4,75,85,-87.5,85,32.5,37.5,42.5,42.5,80,87.5,-92.5,87.5,215,,
1,Brooklyn Hoerner,F,SBD,F-JV,52,Single-ply,2004,,TX,49.7,-107.5,107.5,110,110,60,65,-67.5,65,112.5,122.5,130,130,305,,
2,Savannah Burke,F,SBD,F-JV,52,Single-ply,2002,,LA,51.7,-110,-112.5,112.5,112.5,60,65,72.5,72.5,105,112.5,120,120,305,,
3,Tapenga Tegelman,F,SBD,F-JV,52,Single-ply,2003,Necedah Powerlifting,WI,51.65,100,107.5,115,115,55,57.5,62.5,62.5,105,117.5,-127.5,117.5,295,,
4,Parker Elliott,F,SBD,F-JV,52,Single-ply,2004,,LA,50.75,-95,95,-105,95,52.5,55,-57.5,55,92.5,102.5,-115,102.5,252.5,,
5,Sarah Vanderklis,F,SBD,F-JV,52,Single-ply,2003,Northshore High School,LA,50.8,75,82.5,-85,82.5,37.5,-40,-40,37.5,77.5,85,-90,85,205,,
6,Chloe Freeman,F,SBD,F-JV,52,Single-ply,2003,West Monroe High School,LA,49.6,-72.5,72.5,-90,72.5,37.5,42.5,-45,42.5,72.5,80,-92.5,80,195,,
DQ,Leslie Kirkham,F,SBD,F-JV,52,Single-ply,2004,,LA,51.2,-65,-65,65,65,-37.5,-37.5,,,77.5,-85,-87.5,77.5,,,
DQ,Julie Paijebo,F,SBD,F-JV,52,Single-ply,2003,Woodward Academy,IA,51.7,95,107.5,115,115,-50,-50,-50,,95,107.5,-115,107.5,,,
1,Hailey Hessler,F,SBD,F-JV,57,Single-ply,2003,Germantown Powerlifting,WI,56.7,117.5,127.5,132.5,132.5,57.5,-62.5,-62.5,57.5,115,125,130,130,320,,
2,Victoria Pogorzelski,F,SBD,F-JV,57,Single-ply,2004,,WI,53.95,-97.5,97.5,107.5,107.5,52.5,60,-65,60,125,137.5,140,140,307.5,,
3,Allison Lucier,F,SBD,F-JV,57,Single-ply,2003,Necedah Powerlifting,WI,56,105,112.5,117.5,117.5,-55,55,57.5,57.5,105,112.5,117.5,117.5,292.5,,
4,Chloe Treviño,F,SBD,F-JV,57,Single-ply,2003,,LA,56.6,-115,-115,115,115,60,62.5,65,65,105,110,-115,110,290,,
5,Ashley Lang,F,SBD,F-JV,57,Single-ply,2002,Pope John Paul II High School,LA,57,85,92.5,97.5,97.5,-50,50,57.5,57.5,110,120,127.5,127.5,282.5,,
6,Katelyn Sinitiere,F,SBD,F-JV,57,Single-ply,2002,,LA,55.55,87.5,95,-100,95,45,52.5,55,55,90,100,107.5,107.5,257.5,,
7,Gracee Picou,F,SBD,F-JV,57,Single-ply,2004,,LA,53.5,82.5,90,-92.5,90,32.5,-40,-40,32.5,90,97.5,-102.5,97.5,220,,
DQ,Kennedy Randall,F,SBD,F-JV,57,Single-ply,2004,,LA,54.1,-72.5,82.5,-87.5,82.5,-30,-42.5,-42.5,,80,87.5,92.5,92.5,,,
DQ,Dana McAlister,F,SBD,F-JV,57,Single-ply,2003,,TX,55.4,-97.5,-97.5,-97.5,,-42.5,-42.5,42.5,42.5,110,120,-130,120,,,
DQ,Campbell Barcelona,F,SBD,F-JV,57,Single-ply,2003,,LA,56.95,82.5,90,95,95,-50,-50,-50,,100,-105,-105,100,,,
1,Kayelyn Hadley,F,SBD,F-JV,63,Single-ply,2002,Necedah Powerlifting,WI,61.3,115,125,137.5,137.5,52.5,55,57.5,57.5,110,120,130,130,325,,
2,Anna Zavala,F,SBD,F-JV,63,Single-ply,2004,Necedah Powerlifting,WI,61.8,110,117.5,-127.5,117.5,62.5,67.5,72.5,72.5,107.5,115,125,125,315,,
3,Hayden Blakeman,F,SBD,F-JV,63,Single-ply,2003,Pope John Paul II High School,LA,60.9,100,107.5,-122.5,107.5,47.5,50,55,55,110,122.5,137.5,137.5,300,,
4,Emma Mcfarland,F,SBD,F-JV,63,Single-ply,2003,,WI,61.65,105,-115,122.5,122.5,35,-45,47.5,47.5,107.5,117.5,125,125,295,,
5,Ashleigh Dillard,F,SBD,F-JV,63,Single-ply,2002,Northlake Christian School,LA,58.05,95,100,107.5,107.5,45,50,52.5,52.5,115,125,132.5,132.5,292.5,,
6,Makynli Luzier,F,SBD,F-JV,63,Single-ply,2004,Abbeville High School,LA,62.75,97.5,107.5,-112.5,107.5,40,45,52.5,52.5,95,107.5,115,115,275,,
7,Arianna Davis,F,SBD,F-JV,63,Single-ply,2003,Jena High School,LA,57.15,97.5,102.5,-117.5,102.5,40,42.5,-47.5,42.5,102.5,110,122.5,122.5,267.5,,
8,Katelynn Caillouet,F,SBD,F-JV,63,Single-ply,2002,Covington Powerlifting,LA,60.55,-102.5,105,115,115,52.5,-57.5,-57.5,52.5,92.5,100,-120,100,267.5,,
9,Savannah Allemand,F,SBD,F-JV,63,Single-ply,2004,Jena High School,LA,60.1,82.5,95,-100,95,40,45,-47.5,45,-90,100,115,115,255,,
10,Emma Tran,F,SBD,F-JV,63,Single-ply,2003,West Monroe High School,LA,60.7,87.5,97.5,105,105,45,-52.5,-52.5,45,80,82.5,92.5,92.5,242.5,,
11,Estefany Almazan,F,SBD,F-JV,63,Single-ply,2003,Woodward Academy,IA,62.15,87.5,-97.5,-97.5,87.5,42.5,-47.5,47.5,47.5,82.5,85,95,95,230,,
1,Anna Renner,F,SBD,F-JV,72,Single-ply,2003,Necedah Powerlifting,WI,68.5,140,150,157.5,157.5,57.5,60,62.5,62.5,130,140,152.5,152.5,372.5,,
2,Isabelle Stoute,F,SBD,F-JV,72,Single-ply,2002,Hershey Powerlifting,PA,70.1,142.5,152.5,-160,152.5,70,-75,-75,70,125,137.5,142.5,142.5,365,,
3,Gabrielle Harden,F,SBD,F-JV,72,Single-ply,2002,Woodward Academy,IA,68.5,125,140,-150,140,77.5,82.5,85,85,135,-145,-147.5,135,360,,
4,Bijanae Thomas,F,SBD,F-JV,72,Single-ply,2002,Lutcher High School,LA,67.85,110,120,137.5,137.5,52.5,60,62.5,62.5,115,127.5,137.5,137.5,337.5,,
5,Jasmine Popp,F,SBD,F-JV,72,Single-ply,2002,Necedah Powerlifting,WI,69.8,140,145,152.5,152.5,60,62.5,65,65,110,117.5,-125,117.5,335,,
6,Aynsley Saucier,F,SBD,F-JV,72,Single-ply,2002,West Monroe High School,LA,65.3,110,120,127.5,127.5,60,-65,-65,60,130,142.5,-152.5,142.5,330,,
7,Kaitlyn Vidrine,F,SBD,F-JV,72,Single-ply,2003,Pope John Paul II High School,LA,66.95,115,120,127.5,127.5,52.5,57.5,60,60,115,120,137.5,137.5,325,,
8,Miranda Morel,F,SBD,F-JV,72,Single-ply,2003,,LA,67.3,-117.5,120,-127.5,120,57.5,60,62.5,62.5,117.5,127.5,135,135,317.5,,
9,Niayonna Frazier,F,SBD,F-JV,72,Single-ply,2003,Woodward Academy,IA,70.05,-115,115,135,135,55,62.5,65,65,115,-130,-142.5,115,315,,
10,Aaliyah Coco,F,SBD,F-JV,72,Single-ply,2003,Abbeville High School,LA,64.75,105,115,125,125,65,70,72.5,72.5,97.5,110,115,115,312.5,,
11,Destani Longman,F,SBD,F-JV,72,Single-ply,2003,Abbeville High School,LA,69.5,92.5,97.5,105,105,55,60,62.5,62.5,102.5,115,122.5,122.5,290,,
12,Alyssa Haase,F,SBD,F-JV,72,Single-ply,2004,Lutcher High School,LA,68.4,92.5,102.5,-110,102.5,40,45,-52.5,45,110,125,-137.5,125,272.5,,
13,Mia Elfer,F,SBD,F-JV,72,Single-ply,2004,Pope John Paul II High School,LA,70.85,95,100,107.5,107.5,47.5,-50,-50,47.5,87.5,95,102.5,102.5,257.5,,
14,Thayer Rogers,F,SBD,F-JV,72,Single-ply,2003,Hershey Powerlifting,PA,69.05,92.5,102.5,105,105,40,45,-47.5,45,90,100,105,105,255,,
15,Hannah Browder,F,SBD,F-JV,72,Single-ply,2002,West Monroe High School,LA,65.2,100,105,-107.5,105,-42.5,42.5,-52.5,42.5,92.5,97.5,-102.5,97.5,245,,
1,Abigail Kreger,F,SBD,F-JV,84,Single-ply,2004,,WI,82.55,137.5,-150,-150,137.5,60,65,-67.5,65,125,-135,137.5,137.5,340,,
2,Zariah Martin,F,SBD,F-JV,84,Single-ply,2003,Woodward Academy,IA,73.45,110,125,135,135,-72.5,72.5,-75,72.5,112.5,122.5,130,130,337.5,,
3,Alissa Saunders,F,SBD,F-JV,84,Single-ply,2003,Necedah Powerlifting,WI,75.7,110,120,127.5,127.5,60,62.5,65,65,125,130,-137.5,130,322.5,,
4,Lillian Woodward,F,SBD,F-JV,84,Single-ply,2002,West Monroe High School,LA,79.9,105,112.5,122.5,122.5,-52.5,-52.5,52.5,52.5,110,115,120,120,295,,
5,Rhyanna Brooks,F,SBD,F-JV,84,Single-ply,2002,Northshore High School,LA,75.15,102.5,110,-117.5,110,57.5,62.5,67.5,67.5,95,105,115,115,292.5,,
6,Harleigh Copeland,F,SBD,F-JV,84,Single-ply,2002,West Monroe High School,LA,77.15,95,102.5,-110,102.5,55,60,67.5,67.5,95,100,115,115,285,,
7,Kassie Montz,F,SBD,F-JV,84,Single-ply,2004,Lutcher High School,LA,78.8,105,-117.5,120,120,57.5,62.5,-67.5,62.5,102.5,-115,-125,102.5,285,,
8,Marcela Marquez,F,SBD,F-JV,84,Single-ply,2004,Abbeville High School,LA,75.25,77.5,85,92.5,92.5,52.5,60,65,65,100,110,120,120,277.5,,
9,Montgomery Coon,F,SBD,F-JV,84,Single-ply,2003,West Monroe High School,LA,73.2,100,107.5,-115,107.5,-50,50,52.5,52.5,77.5,87.5,95,95,255,,
1,Kendra Krall,F,SBD,F-JV,84+,Single-ply,2003,Necedah Powerlifting,WI,87.3,155,167.5,177.5,177.5,60,-67.5,67.5,67.5,137.5,147.5,157.5,157.5,402.5,,
2,Jayla Reaux,F,SBD,F-JV,84+,Single-ply,2003,Abbeville High School,LA,90.15,135,147.5,155,155,92.5,100,102.5,102.5,120,137.5,-147.5,137.5,395,,
3,Abby Fayard,F,SBD,F-JV,84+,Single-ply,2003,Northshore High School,LA,101.2,135,145,155,155,75,82.5,90,90,125,132.5,142.5,142.5,387.5,,
4,Maddison Gister,F,SBD,F-JV,84+,Single-ply,2003,,WI,123.7,125,-135,137.5,137.5,62.5,65,70,70,127.5,135,155,155,362.5,,
5,Kaylee Bonner,F,SBD,F-JV,84+,Single-ply,2004,West Monroe High School,LA,87.3,132.5,137.5,145,145,60,65,72.5,72.5,132.5,142.5,-147.5,142.5,360,,
6,Zada Radcliffe,F,SBD,F-JV,84+,Single-ply,2003,Necedah Powerlifting,WI,115.7,-140,140,155,155,65,70,75,75,110,120,130,130,360,,
7,Hannah Price,F,SBD,F-JV,84+,Single-ply,2002,West Monroe High School,LA,136,115,120,137.5,137.5,-80,80,85,85,107.5,117.5,137.5,137.5,360,,
8,Tiffany Hatfield,F,SBD,F-JV,84+,Single-ply,2002,Mauston Powerlifting,WI,135.55,125,-135,145,145,47.5,52.5,-55,52.5,125,137.5,-147.5,137.5,335,,
9,Tyreana Hughes,F,SBD,F-JV,84+,Single-ply,2004,,LA,87.65,-125,125,-132.5,125,60,70,-77.5,70,115,125,137.5,137.5,332.5,,
10,Olivia Candies,F,SBD,F-JV,84+,Single-ply,2003,,LA,94.8,115,125,-130,125,70,77.5,82.5,82.5,105,115,-122.5,115,322.5,,
11,Avery Natal,F,SBD,F-JV,84+,Single-ply,2002,Pope John Paul II High School,LA,97.9,125,-135,-142.5,125,57.5,60,67.5,67.5,92.5,102.5,115,115,307.5,,
12,Hannah Drake,F,SBD,F-JV,84+,Single-ply,2002,West Monroe High School,LA,85.25,115,-120,120,120,65,70,-75,70,92.5,97.5,107.5,107.5,297.5,,
DQ,Pyper Hansen,F,SBD,F-JV,84+,Single-ply,2003,Woodward Academy,IA,104,117.5,132.5,142.5,142.5,-75,-75,-75,,115,-132.5,-137.5,115,,,
1,Jelynn Cheatham,F,SBD,F-V,43,Single-ply,2001,Slidell High School,LA,42.4,-120,120,130,130,57.5,62.5,-65,62.5,112.5,120,125,125,317.5,,
2,Lyssa Reynolds,F,SBD,F-V,43,Single-ply,2003,Slidell High School,LA,42.65,-97.5,-97.5,97.5,97.5,42.5,47.5,50,50,92.5,97.5,100,100,247.5,,
3,Molly Burnett,F,SBD,F-V,43,Single-ply,2002,West Monroe High School,LA,42.8,92.5,97.5,102.5,102.5,40,45,47.5,47.5,75,82.5,-90,82.5,232.5,,
1,Xacaria Clark,F,SBD,F-V,47,Single-ply,2002,,LA,46.3,122.5,130,-135,130,52.5,57.5,62.5,62.5,127.5,135,142.5,142.5,335,,
2,Braiana Tomino,F,SBD,F-V,47,Single-ply,2001,Abbeville High School,LA,46.95,102.5,112.5,120,120,50,57.5,62.5,62.5,112.5,125,145,145,327.5,,
3,Earlysha Turner,F,SBD,F-V,47,Single-ply,2001,West Monroe High School,LA,44.7,110,115,120,120,45,50,-52.5,50,-112.5,112.5,120,120,290,,
4,Paige Delsa,F,SBD,F-V,47,Single-ply,2003,Natchitoches Central High School,LA,46.25,90,-100,105,105,47.5,50,52.5,52.5,97.5,105,112.5,112.5,270,,
5,Shaye Robertson,F,SBD,F-V,47,Single-ply,2004,Abbeville High School,LA,43.7,90,97.5,102.5,102.5,45,55,57.5,57.5,90,102.5,107.5,107.5,267.5,,
6,Cari Talley,F,SBD,F-V,47,Single-ply,2001,Covington Powerlifting,LA,46.15,90,102.5,-112.5,102.5,50,-55,-55,50,87.5,102.5,-110,102.5,255,,
7,Audrey Doenges,F,SBD,F-V,47,Single-ply,2002,Jena High School,LA,46.2,-92.5,97.5,-107.5,97.5,42.5,50,-55,50,100,107.5,-115,107.5,255,,
8,Suheilly Pagan,F,SBD,F-V,47,Single-ply,2004,,LA,46.7,75,85,100,100,35,40,-45,40,77.5,85,105,105,245,,
9,Kaitlyn Toney,F,SBD,F-V,47,Single-ply,2000,West Monroe High School,LA,46.9,85,95,100,100,40,42.5,-47.5,42.5,90,97.5,102.5,102.5,245,,
10,Caitlyn Toralba,F,SBD,F-V,47,Single-ply,2003,,LA,46.75,80,85,-90,85,42.5,-45,-45,42.5,102.5,107.5,-110,107.5,235,,
1,Quamecca Stafford,F,SBD,F-V,52,Single-ply,2003,Lutcher High School,LA,50.5,127.5,140,150,150,72.5,77.5,-82.5,77.5,147.5,165,180,180,407.5,,
2,Cara Scott,F,SBD,F-V,52,Single-ply,2001,Covington Powerlifting,LA,50.75,-120,120,130,130,60,65,67.5,67.5,122.5,130,137.5,137.5,335,,
3,Caralee Suchomel,F,SBD,F-V,52,Single-ply,2003,,WI,51.65,110,117.5,122.5,122.5,65,75,-82.5,75,122.5,130,135,135,332.5,,
4,Alyssa Kirchner,F,SBD,F-V,52,Single-ply,2002,,MS,50,125,132.5,-137.5,132.5,60,65,70,70,125,-135,-135,125,327.5,,
5,Layla Dupuy,F,SBD,F-V,52,Single-ply,2001,,LA,50.05,117.5,-125,-125,117.5,65,70,-72.5,70,125,132.5,-140,132.5,320,,
6,Destiny LeBlanc,F,SBD,F-V,52,Single-ply,2001,Covington Powerlifting,LA,50.45,120,-127.5,127.5,127.5,65,70,-75,70,112.5,120,-130,120,317.5,,
7,Taylor Douglas,F,SBD,F-V,52,Single-ply,2000,Wossman High School,LA,51.45,90,105,-112.5,105,-55,57.5,-62.5,57.5,105,122.5,-130,122.5,285,,
8,Jordan Brignac,F,SBD,F-V,52,Single-ply,2001,Lutcher High School,LA,49.15,87.5,97.5,105,105,40,47.5,50,50,115,125,-135,125,280,,
9,Catalyna Mata,F,SBD,F-V,52,Single-ply,2002,,TX,48.45,80,97.5,100,100,37.5,-55,55,55,102.5,120,-127.5,120,275,,
10,Hope Mitchell,F,SBD,F-V,52,Single-ply,2001,Pope John Paul II High School,LA,50.4,95,107.5,-117.5,107.5,47.5,52.5,57.5,57.5,100,107.5,-112.5,107.5,272.5,,
11,Shyanne Meza,F,SBD,F-V,52,Single-ply,2001,West Monroe High School,LA,50.9,102.5,-105,-105,102.5,55,-60,60,60,97.5,105,110,110,272.5,,
12,Alexandra Wolfe,F,SBD,F-V,52,Single-ply,2001,,LA,51.95,100,-105,-105,100,52.5,-60,-60,52.5,112.5,120,-127.5,120,272.5,,
13,Ericka Hernandez,F,SBD,F-V,52,Single-ply,2002,West Monroe High School,LA,51.45,100,107.5,112.5,112.5,37.5,42.5,-45,42.5,97.5,105,115,115,270,,
14,Brianna Jones,F,SBD,F-V,52,Single-ply,2002,Peabody Iron Horse,LA,51.1,-92.5,-92.5,92.5,92.5,-37.5,37.5,-45,37.5,92.5,107.5,117.5,117.5,247.5,,
1,Angelina Battige,F,SBD,F-V,57,Single-ply,2004,,WI,54.75,142.5,155,165,165,82.5,85,90,90,165,177.5,-182.5,177.5,432.5,,
2,Jennifer Salazar,F,SBD,F-V,57,Single-ply,2000,,WI,56.1,130,137.5,140,140,85,-90,-90,85,137.5,147.5,155,155,380,,
3,Brianna Collins,F,SBD,F-V,57,Single-ply,2001,,LA,54.75,-132.5,132.5,-145,132.5,-65,65,75,75,147.5,160,-172.5,160,367.5,,
4,Ashley Lee,F,SBD,F-V,57,Single-ply,2001,Cudahy High School,WI,55.6,127.5,135,-142.5,135,72.5,77.5,-80,77.5,130,137.5,-142.5,137.5,350,,
5,Lauren Freeck,F,SBD,F-V,57,Single-ply,2001,Cudahy High School,WI,56.1,-127.5,127.5,-135,127.5,62.5,67.5,70,70,147.5,-155,-155,147.5,345,,
6,Alexis Laiche,F,SBD,F-V,57,Single-ply,2002,Lutcher High School,LA,56.9,120,-132.5,-140,120,60,67.5,75,75,125,140,-152.5,140,335,,
7,Brandi Lambert,F,SBD,F-V,57,Single-ply,2002,Lutcher High School,LA,56.55,120,135,-140,135,57.5,65,-70,65,130,-147.5,-147.5,130,330,,
8,Katherine Bilac,F,SBD,F-V,57,Single-ply,2002,,LA,55.1,115,120,-127.5,120,60,65,-67.5,65,125,130,-137.5,130,315,,
9,Bridget Seghers,F,SBD,F-V,57,Single-ply,2002,Covington Powerlifting,LA,56.35,125,130,-137.5,130,62.5,67.5,72.5,72.5,102.5,-110,-115,102.5,305,,
1,Alyzza Stann,F,SBD,F-V,63,Single-ply,2000,Covington Powerlifting,LA,62.6,147.5,160,172.5,172.5,80,90,-97.5,90,162.5,172.5,182.5,182.5,445,,
2,Machaela Exner,F,SBD,F-V,63,Single-ply,2001,Necedah Powerlifting,WI,61.7,160,167.5,175,175,82.5,90,95,95,160,170,-182.5,170,440,,
3,Britney Kopp,F,SBD,F-V,63,Single-ply,2001,Cudahy High School,WI,61.7,-157.5,157.5,-162.5,157.5,-100,100,105,105,150,160,-167.5,160,422.5,,
4,Kallie McDonald,F,SBD,F-V,63,Single-ply,2002,Lutcher High School,LA,62.65,130,142.5,155,155,60,67.5,75,75,142.5,157.5,167.5,167.5,397.5,,
5,Grace Tollar,F,SBD,F-V,63,Single-ply,2000,Neenah Powerlifting,WI,62.15,125,132.5,142.5,142.5,72.5,77.5,82.5,82.5,137.5,150,157.5,157.5,382.5,,
6,Traniece Crawford,F,SBD,F-V,63,Single-ply,2004,Slidell High School,LA,60.65,135,145,-152.5,145,57.5,60,62.5,62.5,-147.5,147.5,-150,147.5,355,,
7,Makayla Jones,F,SBD,F-V,63,Single-ply,2001,Abbeville High School,LA,60.35,-127.5,127.5,-145,127.5,82.5,87.5,92.5,92.5,112.5,127.5,132.5,132.5,352.5,,
8,Trystian Eli,F,SBD,F-V,63,Single-ply,2000,,LA,61.35,-140,140,-155,140,-45,45,-57.5,45,140,152.5,160,160,345,,
9,Josie Reitzell,F,SBD,F-V,63,Single-ply,2002,,LA,62.1,130,137.5,142.5,142.5,62.5,67.5,-72.5,67.5,125,132.5,-137.5,132.5,342.5,,
10,Brooke Appe,F,SBD,F-V,63,Single-ply,2001,,LA,59.4,115,122.5,-127.5,122.5,60,-65,65,65,120,122.5,125,125,312.5,,
11,Emily Schneider #1,F,SBD,F-V,63,Single-ply,2000,Covington Powerlifting,LA,60.5,117.5,127.5,-135,127.5,60,67.5,-75,67.5,105,115,-125,115,310,,
1,Shay Naquin,F,SBD,F-V,72,Single-ply,2003,Lutcher High School,LA,69.15,152.5,165,180,180,85,92.5,100,100,152.5,170,180,180,460,,
2,Courtney Corrente,F,SBD,F-V,72,Single-ply,2000,Neenah Powerlifting,WI,64.95,167.5,-177.5,177.5,177.5,72.5,75,77.5,77.5,172.5,182.5,-190,182.5,437.5,,
3,Kennedy Ketzer,F,SBD,F-V,72,Single-ply,2000,,WI,71.65,162.5,-172.5,172.5,172.5,87.5,92.5,-97.5,92.5,152.5,-160,160,160,425,,
4,Abigail Flora,F,SBD,F-V,72,Single-ply,2001,Germantown Powerlifting,WI,63.8,152.5,162.5,170,170,75,82.5,85,85,140,147.5,152.5,152.5,407.5,,
5,Erin Whipple,F,SBD,F-V,72,Single-ply,2001,,WI,69.85,-160,167.5,-172.5,167.5,62.5,65,-67.5,65,155,165,-177.5,165,397.5,,
6,Abigail Momberg,F,SBD,F-V,72,Single-ply,2000,Cudahy High School,WI,70.45,130,142.5,-152.5,142.5,82.5,87.5,90,90,140,150,157.5,157.5,390,,
7,Isabella Mullally,F,SBD,F-V,72,Single-ply,2002,Neenah Powerlifting,WI,70.8,-142.5,147.5,152.5,152.5,82.5,-87.5,-87.5,82.5,130,140,-145,140,375,,
8,Kendal Frazier,F,SBD,F-V,72,Single-ply,2003,Covington Powerlifting,LA,68.65,145,155,-162.5,155,-67.5,67.5,-75,67.5,125,132.5,-152.5,132.5,355,,
9,Anani Williams,F,SBD,F-V,72,Single-ply,2002,,LA,64.9,132.5,140,147.5,147.5,60,-67.5,-67.5,60,125,135,142.5,142.5,350,,
10,Joscelyn Collins,F,SBD,F-V,72,Single-ply,2002,Covington Powerlifting,LA,70.85,125,132.5,-140,132.5,82.5,-90,-92.5,82.5,120,-127.5,-127.5,120,335,,
11,Madison Rinehart,F,SBD,F-V,72,Single-ply,2001,Northshore High School,LA,69.5,110,117.5,125,125,-52.5,52.5,-55,52.5,132.5,140,-150,140,317.5,,
DQ,Astrid Lemmons,F,SBD,F-V,72,Single-ply,2002,,LA,68.5,135,145,-155,145,87.5,-95,-95,87.5,-135,-135,-135,,,,
1,Mykelli Hudson-Brew,F,SBD,F-V,84,Single-ply,2001,,LA,80.6,170,182.5,-192.5,182.5,80,85,87.5,87.5,182.5,192.5,-212.5,192.5,462.5,,
2,Geri Fredrickson,F,SBD,F-V,84,Single-ply,2001,,WI,80.5,175,182.5,187.5,187.5,-92.5,92.5,100,100,-150,157.5,162.5,162.5,450,,
3,Adeyinka Ariwajoye,F,SBD,F-V,84,Single-ply,2002,Slidell High School,LA,79.8,137.5,145,152.5,152.5,-80,82.5,87.5,87.5,180,190,-200,190,430,,
4,Elizabeth Harris,F,SBD,F-V,84,Single-ply,2001,Hershey Powerlifting,PA,83.05,162.5,-175,-180,162.5,-80,82.5,87.5,87.5,165,177.5,-185,177.5,427.5,,
5,Delilah Burgos,F,SBD,F-V,84,Single-ply,2002,Cudahy High School,WI,83.1,155,165,175,175,-92.5,-92.5,92.5,92.5,137.5,145,152.5,152.5,420,,
6,Melanie Louque,F,SBD,F-V,84,Single-ply,2001,Lutcher High School,LA,83.45,142.5,160,170,170,80,-87.5,-87.5,80,137.5,157.5,160,160,410,,
7,Alexxis Jones,F,SBD,F-V,84,Single-ply,2000,,LA,83.1,137.5,150,165,165,70,75,-77.5,75,155,165,-172.5,165,405,,
8,Ava Townley,F,SBD,F-V,84,Single-ply,2003,,LA,82.7,137.5,155,-162.5,155,85,87.5,-92.5,87.5,142.5,152.5,-162.5,152.5,395,,
9,Dey'Shalund Eggins,F,SBD,F-V,84,Single-ply,2002,,LA,74.3,150,-165,165,165,72.5,77.5,-80,77.5,135,142.5,150,150,392.5,,
10,Sheriah Williams,F,SBD,F-V,84,Single-ply,2002,West Monroe High School,LA,74.75,152.5,157.5,162.5,162.5,-70,70,80,80,147.5,-160,-160,147.5,390,,
11,Makilie Paluch,F,SBD,F-V,84,Single-ply,2001,,SD,77.05,-142.5,150,-162.5,150,60,67.5,-72.5,67.5,160,167.5,-172.5,167.5,385,,
12,Brenda Nute,F,SBD,F-V,84,Single-ply,2000,,LA,76.9,125,137.5,-147.5,137.5,55,62.5,67.5,67.5,152.5,177.5,-185,177.5,382.5,,
13,Hannah Barnett,F,SBD,F-V,84,Single-ply,2003,Abbeville High School,LA,80.2,130,147.5,157.5,157.5,-87.5,87.5,-100,87.5,120,137.5,-150,137.5,382.5,,
14,Brianna Primm,F,SBD,F-V,84,Single-ply,2002,West Monroe High School,LA,83.45,137.5,145,150,150,82.5,-87.5,-87.5,82.5,137.5,145,-155,145,377.5,,
15,Evelyn McCall,F,SBD,F-V,84,Single-ply,2002,,LA,79.65,142.5,-152.5,152.5,152.5,52.5,62.5,70,70,142.5,-150,150,150,372.5,,
16,Jasmine Moore,F,SBD,F-V,84,Single-ply,2002,,LA,75.45,135,142.5,-147.5,142.5,70,-75,-75,70,-115,115,135,135,347.5,,
DQ,Kaya Morrow,F,SBD,F-V,84,Single-ply,2002,,LA,75.45,-152.5,152.5,-162.5,152.5,-85,-85,-85,,,,,,,,
DQ,Sara DeMattie,F,SBD,F-V,84,Single-ply,2001,,LA,77.85,-170,-170,-170,,-85,,,,,,,,,,
DQ,Catti Rock,F,SBD,F-V,84,Single-ply,2003,,TX,82.35,172.5,-182.5,-182.5,172.5,-82.5,-82.5,-82.5,,,,,,,,
1,Brionna Ford,F,SBD,F-V,84+,Single-ply,2002,,LA,113.65,215,225,-227.5,225,110,120,132.5,132.5,180,192.5,-210,192.5,550,,
2,Jamie Johnson #2,F,SBD,F-V,84+,Single-ply,2001,,LA,133.25,225,237.5,240,240,102.5,110,-112.5,110,170,180,-187.5,180,530,,
3,Samauria Brooks,F,SBD,F-V,84+,Single-ply,2001,,LA,118.1,200,-227.5,-227.5,200,75,-95,95,95,185,195,200,200,495,,
4,Lainey Trahan,F,SBD,F-V,84+,Single-ply,2001,Abbeville High School,LA,114.05,167.5,182.5,190,190,117.5,132.5,-142.5,132.5,-130,130,167.5,167.5,490,,
5,Danielle Eaglin,F,SBD,F-V,84+,Single-ply,2001,Neenah Powerlifting,WI,91.85,172.5,182.5,195,195,92.5,102.5,112.5,112.5,170,180,-185,180,487.5,,
6,Karmyn King,F,SBD,F-V,84+,Single-ply,2002,Slidell High School,LA,99.55,192.5,-202.5,-202.5,192.5,90,95,100,100,182.5,195,-205,195,487.5,,
7,Harmoni Brown,F,SBD,F-V,84+,Single-ply,2001,Covington Powerlifting,LA,127.25,185,197.5,205,205,112.5,120,127.5,127.5,135,145,-165,145,477.5,,
8,Aaliyah Sherman,F,SBD,F-V,84+,Single-ply,2001,,LA,98.2,170,182.5,-187.5,182.5,92.5,102.5,-110,102.5,170,185,-192.5,185,470,,
9,Kayli Bowman,F,SBD,F-V,84+,Single-ply,2002,West Monroe High School,LA,90.3,152.5,160,165,165,82.5,-90,90,90,155,162.5,170,170,425,,
10,Megan Peters,F,SBD,F-V,84+,Single-ply,2000,Hershey Powerlifting,PA,133.15,-152.5,-157.5,157.5,157.5,97.5,107.5,115,115,135,150,-155,150,422.5,,
11,Bethany Skroch,F,SBD,F-V,84+,Single-ply,2001,,WI,117.6,167.5,177.5,-185,177.5,-85,85,92.5,92.5,130,140,150,150,420,,
12,Madison Mire,F,SBD,F-V,84+,Single-ply,2001,Lutcher High School,LA,106.2,137.5,160,-167.5,160,102.5,-115,125,125,115,125,-145,125,410,,
13,Abbie Caples,F,SBD,F-V,84+,Single-ply,2001,West Monroe High School,LA,96.9,-140,140,147.5,147.5,85,90,97.5,97.5,125,132.5,142.5,142.5,387.5,,
14,Kai Kirk,F,SBD,F-V,84+,Single-ply,2002,Peabody Iron Horse,LA,108.05,165,177.5,-185,177.5,60,70,-80,70,135,-150,-150,135,382.5,,
15,Tierra Northcutt,F,SBD,F-V,84+,Single-ply,2001,,LA,98.8,125,135,-142.5,135,80,87.5,-95,87.5,-130,130,-137.5,130,352.5,,
DQ,Taina Caldwell,F,SBD,F-V,84+,Single-ply,2001,,LA,89.9,185,-195,195,195,-75,80,92.5,92.5,-140,-140,-140,,,,
1,Carmen Hernandez,F,SBD,FR-JV,43,Raw,2003,Mauston Powerlifting,WI,34.05,47.5,50,-52.5,50,25,27.5,-30,27.5,80,87.5,95,95,172.5,,
1,Kera Minigh,F,SBD,FR-JV,47,Raw,2004,,WI,44.1,80,-87.5,87.5,87.5,35,40,-42.5,40,80,90,-100,90,217.5,,
DQ,Jo'Nia Williams,F,SBD,FR-JV,47,Raw,2002,,LA,43.2,-45,-45,-45,,25,30,-32.5,30,50,57.5,62.5,62.5,,,
1,Spencer Leatherberry,F,SBD,FR-JV,52,Raw,2002,,CA,51.65,75,80,90,90,37.5,42.5,47.5,47.5,85,95,105,105,242.5,,
2,Peyton Paa,F,SBD,FR-JV,52,Raw,2002,,SD,51.75,-80,87.5,-92.5,87.5,42.5,47.5,-50,47.5,75,-95,-95,75,210,,
1,Ashley Stigler,F,SBD,FR-JV,57,Raw,2003,Waterford Union High School,WI,56.15,-87.5,90,-97.5,90,42.5,47.5,50,50,107.5,112.5,117.5,117.5,257.5,,
2,Eden Fanning,F,SBD,FR-JV,57,Raw,2003,,SD,55.7,75,87.5,92.5,92.5,45,52.5,55,55,92.5,-102.5,-102.5,92.5,240,,
3,Samantha Tealey,F,SBD,FR-JV,57,Raw,2003,,WI,55.35,67.5,70,72.5,72.5,35,37.5,40,40,90,97.5,-100,97.5,210,,
4,Michaela Sardo,F,SBD,FR-JV,57,Raw,2002,,MI,56.25,60,65,-70,65,37.5,-42.5,-42.5,37.5,97.5,102.5,-107.5,102.5,205,,
5,Shelby Mayer,F,SBD,FR-JV,57,Raw,2003,,MS,56.1,60,-65,65,65,32.5,35,-40,35,80,85,90,90,190,,
6,Danica Flint,F,SBD,FR-JV,57,Raw,2004,Mauston Powerlifting,WI,54.05,60,-65,-65,60,27.5,-32.5,32.5,32.5,87.5,92.5,-97.5,92.5,185,,
1,Annalisya White,F,SBD,FR-JV,63,Raw,2003,,LA,61.4,-85,85,95,95,35,42.5,45,45,92.5,102.5,110,110,250,,
2,Tavyn Jones,F,SBD,FR-JV,63,Raw,2003,,WI,61.8,77.5,82.5,87.5,87.5,37.5,40,-42.5,40,92.5,100,-110,100,227.5,,
3,Cassie Duhon,F,SBD,FR-JV,63,Raw,2002,,LA,60.3,75,80,-85,80,40,42.5,45,45,77.5,85,90,90,215,,
1,Darisha Millsap,F,SBD,FR-JV,72,Raw,2003,,LA,71.3,80,85,90,90,35,40,-42.5,40,102.5,107.5,112.5,112.5,242.5,,
2,Summer Diehl,F,SBD,FR-JV,72,Raw,2002,,MI,67.35,80,85,90,90,47.5,-52.5,52.5,52.5,85,92.5,-102.5,92.5,235,,
3,Kylie Gaspard,F,SBD,FR-JV,72,Raw,2004,,LA,67.55,70,72.5,85,85,32.5,37.5,-42.5,37.5,90,100,107.5,107.5,230,,
4,Abbey Warren,F,SBD,FR-JV,72,Raw,2003,,LA,71.2,60,65,72.5,72.5,32.5,35,-45,35,90,100,-112.5,100,207.5,,
5,Parker Sellers,F,SBD,FR-JV,72,Raw,2004,,LA,65.25,70,75,80,80,-32.5,35,-45,35,77.5,82.5,90,90,205,,
1,Anna Steele,F,SBD,FR-JV,84,Raw,2002,,MI,74.4,120,-130,-130,120,72.5,75,77.5,77.5,130,135,140,140,337.5,,
2,Maggie Beach,F,SBD,FR-JV,84,Raw,2003,,MN,83.2,132.5,-140,-140,132.5,52.5,57.5,-60,57.5,122.5,130,-135,130,320,,
3,Meghan Malisheske,F,SBD,FR-JV,84,Raw,2003,,MN,82.9,100,112.5,122.5,122.5,42.5,50,-55,50,122.5,140,-152.5,140,312.5,,
4,Natalie Reboul,F,SBD,FR-JV,84,Raw,2002,,LA,72.2,90,100,-107.5,100,42.5,45,-47.5,45,-145,145,-150,145,290,,
5,Brinessia Hargrove,F,SBD,FR-JV,84,Raw,2004,,LA,79.05,97.5,102.5,110,110,40,45,47.5,47.5,110,120,132.5,132.5,290,,
6,Marianna Chavez,F,SBD,FR-JV,84,Raw,2004,,WI,83.95,102.5,112.5,120,120,47.5,52.5,-55,52.5,105,-117.5,117.5,117.5,290,,
7,Lailah John,F,SBD,FR-JV,84,Raw,2003,,WI,82.75,95,-102.5,-102.5,95,40,42.5,45,45,122.5,127.5,132.5,132.5,272.5,,
8,Madilyn Bergh,F,SBD,FR-JV,84,Raw,2003,,WI,80.45,92.5,97.5,100,100,47.5,50,-52.5,50,102.5,107.5,120,120,270,,
9,Gianna Ray,F,SBD,FR-JV,84,Raw,2004,,MS,81,95,-105,-115,95,45,-47.5,-47.5,45,115,125,-142.5,125,265,,
10,Mika Trottier,F,SBD,FR-JV,84,Raw,2004,,WI,82.2,95,100,105,105,42.5,47.5,50,50,102.5,107.5,-115,107.5,262.5,,
11,Laycie Sanders,F,SBD,FR-JV,84,Raw,2003,,LA,77.15,70,75,80,80,40,42.5,45,45,100,105,110,110,235,,
1,Willow Tetmeyer,F,SBD,FR-JV,84+,Raw,2003,Goodrich Girls Power Lifting,MI,103.15,142.5,160,-170,160,62.5,67.5,72.5,72.5,165,-182.5,182.5,182.5,415,,
2,Chloe Cooper,F,SBD,FR-JV,84+,Raw,2004,,WI,89.95,130,137.5,145,145,57.5,62.5,-67.5,62.5,137.5,147.5,152.5,152.5,360,,
3,Zakiya Johnson,F,SBD,FR-JV,84+,Raw,2003,,LA,84.5,97.5,110,125,125,47.5,57.5,-62.5,57.5,97.5,110,-115,110,292.5,,
4,Megan VanDenHemel,F,SBD,FR-JV,84+,Raw,2004,,SD,84.75,92.5,100,-107.5,100,-47.5,47.5,-50,47.5,125,135,145,145,292.5,,
5,Adara Johnson,F,SBD,FR-JV,84+,Raw,2003,,WI,125.7,100,-110,115,115,55,-60,-60,55,105,115,122.5,122.5,292.5,,
6,Roxanne Vickory,F,SBD,FR-JV,84+,Raw,2004,,MI,84.2,90,-100,100,100,-45,47.5,-50,47.5,125,137.5,-142.5,137.5,285,,
7,Cassidy Flintrop,F,SBD,FR-JV,84+,Raw,2003,Waterford Union High School,WI,88.2,97.5,-102.5,-105,97.5,45,47.5,-50,47.5,127.5,-132.5,-132.5,127.5,272.5,,
8,Ainsley Wood,F,SBD,FR-JV,84+,Raw,2002,,LA,89.2,97.5,-107.5,-107.5,97.5,37.5,40,-45,40,127.5,135,-140,135,272.5,,
9,Diana Perez,F,SBD,FR-JV,84+,Raw,2004,,LA,104.45,97.5,107.5,-117.5,107.5,35,40,42.5,42.5,107.5,117.5,-125,117.5,267.5,,
10,Mackenzie Ross,F,SBD,FR-JV,84+,Raw,2003,,LA,102.7,72.5,-77.5,-77.5,72.5,40,45,47.5,47.5,97.5,105,117.5,117.5,237.5,,
1,Brianna Morrison,F,SBD,FR-V,43,Raw,2001,,FL,41.75,95,101,105,105,55,60,62.5,62.5,97.5,105,115,115,282.5,,
2,Kayda Lopez,F,SBD,FR-V,43,Raw,2003,Laconia Powerlifting Club,WI,42.4,70,75,-77.5,75,-27.5,30,-32.5,30,87.5,95,100,100,205,,
3,Alexandra Lazarus,F,SBD,FR-V,43,Raw,2000,Calvary,LA,41.15,65,70,-72.5,70,30,35,-37.5,35,-75,75,-95,75,180,,
4,Karalyn Moragne,F,SBD,FR-V,43,Raw,2003,Lakeshore High School,LA,41.95,47.5,57.5,-62.5,57.5,32.5,40,-42.5,40,60,-75,-75,60,157.5,,
1,Kailey Brookshire,F,SBD,FR-V,47,Raw,2002,Calvary,LA,47,82.5,95,-107.5,95,50,57.5,60,60,107.5,117.5,127.5,127.5,282.5,,
2,Cara Hayes,F,SBD,FR-V,47,Raw,2000,Lakeshore High School,LA,45.55,-75,75,80,80,40,-42.5,-42.5,40,95,102.5,107.5,107.5,227.5,,
3,Rachel Klein,F,SBD,FR-V,47,Raw,2002,,PA,46.6,72.5,77.5,80,80,47.5,50,52.5,52.5,82.5,87.5,92.5,92.5,225,,
4,Mya Evans,F,SBD,FR-V,47,Raw,2002,Calvary,LA,44.4,65,70,72.5,72.5,35,37.5,-42.5,37.5,77.5,82.5,87.5,87.5,197.5,,
5,Emily Michalzik,F,SBD,FR-V,47,Raw,2004,Cudahy High School,WI,46.1,47.5,55,60,60,25,27.5,-30,27.5,90,97.5,102.5,102.5,190,,
6,Gina Sfasciotti,F,SBD,FR-V,47,Raw,2002,,WI,46.45,62.5,67.5,-72.5,67.5,30,-32.5,32.5,32.5,80,-87.5,87.5,87.5,187.5,,
7,Lauren Knapp,F,SBD,FR-V,47,Raw,2001,Lakeshore High School,LA,47,52.5,57.5,-62.5,57.5,27.5,32.5,35,35,60,77.5,82.5,82.5,175,,
8,Mya Conant,F,SBD,FR-V,47,Raw,2002,,LA,44.15,-57.5,-60,62.5,62.5,27.5,-35,-35,27.5,82.5,-100,-102.5,82.5,172.5,,
1,Lily Tran,F,SBD,FR-V,52,Raw,2001,Boston Latin School Powerlifting,MA,51.85,112.5,-117.5,117.5,117.5,45,47.5,50,50,122.5,132.5,-140,132.5,300,,
2,Gianna Sabatini,F,SBD,FR-V,52,Raw,2004,,PA,48.35,100,105,110,110,55,60,-62.5,60,100,105,110,110,280,,
3,Sophia Salter,F,SBD,FR-V,52,Raw,2001,,SD,50.75,85,-92.5,-92.5,85,45,-47.5,-47.5,45,132.5,140,-152.5,140,270,,
4,Morgyn Hallum,F,SBD,FR-V,52,Raw,2004,Elk Mound High School,WI,51.7,87.5,92.5,97.5,97.5,42.5,-47.5,-47.5,42.5,-107.5,107.5,-112.5,107.5,247.5,,
5,Maria Horvath,F,SBD,FR-V,52,Raw,2002,Laconia Powerlifting Club,WI,51.75,82.5,-87.5,-87.5,82.5,40,42.5,-45,42.5,102.5,107.5,-112.5,107.5,232.5,,
6,Aubrey Mayo,F,SBD,FR-V,52,Raw,2002,Calvary,LA,47.05,80,82.5,85,85,37.5,40,42.5,42.5,90,95,-105,95,222.5,,
DQ,Olivia Tomasi,F,SBD,FR-V,52,Raw,2001,,WI,49.95,-85,-90,-90,,40,45,-47.5,45,107.5,-110,110,110,,,
1,Elyse Velasquez,F,SBD,FR-V,57,Raw,2002,,MI,54.15,100,110,-112.5,110,52.5,57.5,-60,57.5,140,142.5,150,150,317.5,,
2,Kiara Williams,F,SBD,FR-V,57,Raw,2001,,LA,53.85,95,100,107.5,107.5,45,52.5,57.5,57.5,112.5,127.5,132.5,132.5,297.5,,
3,Ariel Moris,F,SBD,FR-V,57,Raw,2001,,WI,56.45,97.5,105,-107.5,105,57.5,60,62.5,62.5,115,-125,-127.5,115,282.5,,
4,Eva Boyum,F,SBD,FR-V,57,Raw,2001,,SD,56.2,100,-107.5,-107.5,100,-42.5,-42.5,42.5,42.5,130,-135,-135,130,272.5,,
5,Mari Stafslien,F,SBD,FR-V,57,Raw,2002,,WI,56.4,92.5,-97.5,-97.5,92.5,50,52.5,-55,52.5,120,-130,-130,120,265,,
6,Abby Jennerman,F,SBD,FR-V,57,Raw,2004,Winneconne,WI,56.45,92.5,-95,97.5,97.5,37.5,45,47.5,47.5,102.5,110,120,120,265,,
7,Mattison Worsley,F,SBD,FR-V,57,Raw,2001,,WI,56.3,80,85,-90,85,47.5,50,-52.5,50,112.5,120,125,125,260,,
8,Skylar Odom,F,SBD,FR-V,57,Raw,2003,Calvary,LA,56.7,85,90,95,95,42.5,47.5,-50,47.5,107.5,117.5,-125,117.5,260,,
9,Ashton Miller,F,SBD,FR-V,57,Raw,2002,St. Mary’s Catholic,WI,56.05,90,92.5,-95,92.5,47.5,50,-52.5,50,97.5,-102.5,102.5,102.5,245,,
10,Rachel Nelson,F,SBD,FR-V,57,Raw,2001,,WI,56.4,75,82.5,-85,82.5,42.5,-45,-47.5,42.5,110,-117.5,117.5,117.5,242.5,,
11,Skylar Zwiefelhofer,F,SBD,FR-V,57,Raw,2003,,WI,54.3,72.5,77.5,-82.5,77.5,37.5,40,-42.5,40,92.5,107.5,115,115,232.5,,
1,Diana Yturbe,F,SBD,FR-V,63,Raw,2004,,NJ,62.2,105,115,120,120,57.5,62.5,-65,62.5,132.5,145,157.5,157.5,340,,
2,Jordan Braund,F,SBD,FR-V,63,Raw,2002,,WI,62.35,120,130,-135,130,60,67.5,-70,67.5,142.5,-150,-150,142.5,340,,
3,Shanen Brown,F,SBD,FR-V,63,Raw,2000,,LA,59.55,102.5,110,122.5,122.5,45,52.5,57.5,57.5,115,135,-150,135,315,,
4,Anna Sackett,F,SBD,FR-V,63,Raw,2001,,WI,61.4,102.5,112.5,117.5,117.5,55,62.5,-65,62.5,110,117.5,122.5,122.5,302.5,,
5,Trinity Preston,F,SBD,FR-V,63,Raw,2002,,MS,61.8,90,97.5,-100,97.5,52.5,-57.5,57.5,57.5,132.5,140,147.5,147.5,302.5,,
6,Kenna Stuart,F,SBD,FR-V,63,Raw,2000,,MS,61.95,95,105,107.5,107.5,50,52.5,-55,52.5,125,135,140,140,300,,
7,Megan Wesolek,F,SBD,FR-V,63,Raw,2001,Necedah Powerlifting,WI,59.05,105,110,-117.5,110,52.5,-55,55,55,107.5,117.5,122.5,122.5,287.5,,
8,Jamie Regnier,F,SBD,FR-V,63,Raw,2001,Neenah Powerlifting,WI,62.25,92.5,100,107.5,107.5,50,55,57.5,57.5,107.5,117.5,122.5,122.5,287.5,,
9,Rachel Folde,F,SBD,FR-V,63,Raw,2001,,SD,62.15,97.5,105,-107.5,105,-52.5,52.5,-57.5,52.5,125,-130,-130,125,282.5,,
10,Kiara Williams,F,SBD,FR-V,63,Raw,2001,,LA,62.25,97.5,105,107.5,107.5,37.5,42.5,-47.5,42.5,102.5,125,132.5,132.5,282.5,,
11,Kaylin Little,F,SBD,FR-V,63,Raw,2002,Calvary,LA,62.45,95,100,105,105,52.5,57.5,-60,57.5,105,120,-140,120,282.5,,
12,Anastasia McCourt,F,SBD,FR-V,63,Raw,2001,,WI,59.9,87.5,95,100,100,47.5,-52.5,52.5,52.5,112.5,122.5,-130,122.5,275,,
13,Riley Ganther,F,SBD,FR-V,63,Raw,2001,Necedah Powerlifting,WI,59.15,80,85,-87.5,85,42.5,45,47.5,47.5,120,125,-130,125,257.5,,
14,Emily Freagon,F,SBD,FR-V,63,Raw,2002,,WI,60.8,-75,80,-85,80,42.5,-45,-45,42.5,95,110,117.5,117.5,240,,
DQ,Allyson Mcdonald,F,SBD,FR-V,63,Raw,2001,,SD,60.85,-100,-100,-100,,42.5,-45,45,45,-110,-110,110,110,,,
1,Maria Dailey,F,SBD,FR-V,72,Raw,2002,,WA,67.25,145,150,155,155,80,82.5,85,85,180,185,190,190,430,,
2,Morgan Hughes #2,F,SBD,FR-V,72,Raw,2000,,SD,70.6,140,-147.5,-147.5,140,60,65,67.5,67.5,140,152.5,157.5,157.5,365,,
3,Somer Nolte,F,SBD,FR-V,72,Raw,2002,Necedah Powerlifting,WI,71.8,125,130,-137.5,130,70,72.5,75,75,130,140,145,145,350,,
4,Olivia Pappadopoulos,F,SBD,FR-V,72,Raw,2001,,WI,66.15,97.5,105,110,110,57.5,62.5,65,65,140,147.5,155,155,330,,
5,Abagayle Kasper,F,SBD,FR-V,72,Raw,2001,Elk Mound High School,WI,70.3,97.5,-102.5,102.5,102.5,55,60,-62.5,60,147.5,155,-162.5,155,317.5,,
6,Sarah Loether,F,SBD,FR-V,72,Raw,2001,Winneconne,WI,66.6,85,97.5,102.5,102.5,52.5,57.5,60,60,137.5,150,-160,150,312.5,,
7,Cianne Johnson,F,SBD,FR-V,72,Raw,2000,,LA,70.2,100,107.5,115,115,45,55,60,60,117.5,127.5,132.5,132.5,307.5,,
8,Keshonna Bates,F,SBD,FR-V,72,Raw,2001,,LA,69.5,85,102.5,112.5,112.5,42.5,-52.5,52.5,52.5,125,135,140,140,305,,
9,Dantayzha Sherman,F,SBD,FR-V,72,Raw,2002,,LA,67,110,115,-137.5,115,55,60,-70,60,107.5,115,127.5,127.5,302.5,,
10,Ny'Gene Williams,F,SBD,FR-V,72,Raw,2002,Abbeville High School,LA,65.9,87.5,97.5,105,105,42.5,47.5,50,50,110,120,137.5,137.5,292.5,,
11,Amanda Nickolai,F,SBD,FR-V,72,Raw,2002,Neenah Powerlifting,WI,69.95,97.5,102.5,-110,102.5,52.5,57.5,-60,57.5,120,-127.5,127.5,127.5,287.5,,
12,Hannah Cynor,F,SBD,FR-V,72,Raw,2000,Elk Mound High School,WI,66.4,90,-95,97.5,97.5,50,52.5,55,55,125,-130,132.5,132.5,285,,
13,Abbey Ward,F,SBD,FR-V,72,Raw,2001,,CA,67.85,102.5,110,112.5,112.5,42.5,45,47.5,47.5,110,120,125,125,285,,
14,Elly Bjork,F,SBD,FR-V,72,Raw,2001,,WI,70.75,80,85,90,90,55,60,62.5,62.5,125,130,-135,130,282.5,,
15,Megan Waller,F,SBD,FR-V,72,Raw,2003,Laconia Powerlifting Club,WI,67.2,105,110,-115,110,-45,45,47.5,47.5,112.5,115,122.5,122.5,280,,
16,Judy Wang,F,SBD,FR-V,72,Raw,2001,,MA,70.95,105,-110,112.5,112.5,42.5,45,-47.5,45,-112.5,112.5,120,120,277.5,,
17,Arla Davis,F,SBD,FR-V,72,Raw,2001,,PA,67.1,75,80,85,85,52.5,-55,55,55,117.5,127.5,135,135,275,,
18,Larissa Fossum,F,SBD,FR-V,72,Raw,2002,,WI,70.8,90,97.5,-102.5,97.5,47.5,50,52.5,52.5,115,125,-137.5,125,275,,
19,Caelan Hayes,F,SBD,FR-V,72,Raw,2002,,LA,67.75,87.5,-95,-110,87.5,52.5,60,-65,60,112.5,125,-137.5,125,272.5,,
20,Brianna Rysavy,F,SBD,FR-V,72,Raw,2001,,SD,66.75,90,92.5,-97.5,92.5,42.5,45,-50,45,125,-135,-135,125,262.5,,
21,Samantha Morgen,F,SBD,FR-V,72,Raw,2002,Laconia Powerlifting Club,WI,68.3,-87.5,90,-95,90,42.5,-45,-45,42.5,125,-135,-135,125,257.5,,
22,Madison Daugherty,F,SBD,FR-V,72,Raw,2001,,MI,66.35,80,87.5,92.5,92.5,47.5,55,-62.5,55,95,100,-102.5,100,247.5,,
1,Megan Gibbs,F,SBD,FR-V,84,Raw,2002,,GA,81.85,165,167.5,172.5,172.5,80,82.5,85,85,185,-192.5,192.5,192.5,450,,
2,Julia Murphy,F,SBD,FR-V,84,Raw,2001,,WI,82.15,147.5,155,162.5,162.5,72.5,75,-77.5,75,160,170,175,175,412.5,,
3,Stella Lobacz,F,SBD,FR-V,84,Raw,2002,Waterford Union High School,WI,81.4,160,-165,165,165,60,-62.5,-62.5,60,170,-187.5,-187.5,170,395,,
4,Samantha Cruz,F,SBD,FR-V,84,Raw,2002,,LA,80.35,122.5,142.5,152.5,152.5,52.5,57.5,62.5,62.5,142.5,167.5,172.5,172.5,387.5,,
5,Sydney Krueger,F,SBD,FR-V,84,Raw,2002,,WI,83.1,137.5,145,-147.5,145,60,62.5,65,65,145,157.5,167.5,167.5,377.5,,
6,Lillii Armstrong,F,SBD,FR-V,84,Raw,2002,,MI,83.45,115,125,-130,125,70,-80,80,80,162.5,167.5,-172.5,167.5,372.5,,
7,Hannah Brown,F,SBD,FR-V,84,Raw,2003,,LA,80,110,127.5,135,135,42.5,52.5,-55,52.5,142.5,155,-160,155,342.5,,
8,Anne-Marie Foster,F,SBD,FR-V,84,Raw,2000,,MI,76.05,102.5,110,117.5,117.5,70,75,-80,75,137.5,-147.5,147.5,147.5,340,,
9,Madison Grigg,F,SBD,FR-V,84,Raw,2002,,MI,81.45,-105,105,-115,105,52.5,57.5,60,60,137.5,147.5,-152.5,147.5,312.5,,
10,Virginia McMillan,F,SBD,FR-V,84,Raw,2001,,WI,80.9,110,115,122.5,122.5,52.5,60,-65,60,107.5,117.5,-127.5,117.5,300,,
11,Sierra Smith #1,F,SBD,FR-V,84,Raw,2003,Neenah Powerlifting,WI,75.15,85,95,105,105,47.5,52.5,57.5,57.5,122.5,132.5,-140,132.5,295,,
12,Carrie Lefeber,F,SBD,FR-V,84,Raw,2001,Laconia Powerlifting Club,WI,76.45,-105,107.5,112.5,112.5,-40,42.5,-47.5,42.5,130,135,140,140,295,,
13,DeAnna Leon,F,SBD,FR-V,84,Raw,2000,Elk Mound High School,WI,83.55,107.5,112.5,-115,112.5,50,52.5,-55,52.5,125,130,-137.5,130,295,,
14,Alana Feser,F,SBD,FR-V,84,Raw,2001,,WI,79.35,95,102.5,107.5,107.5,52.5,-57.5,-57.5,52.5,112.5,120,130,130,290,,
15,Julia Shifko,F,SBD,FR-V,84,Raw,2003,,PA,82.5,-105,105,-120,105,55,-62.5,-62.5,55,105,125,-140,125,285,,
1,Jasmine Greer,F,SBD,FR-V,84+,Raw,2002,,SD,118.2,-142.5,152.5,162.5,162.5,77.5,82.5,-87.5,82.5,185,210,-235,210,455,,
2,Ariana Guerra,F,SBD,FR-V,84+,Raw,2002,,WI,114.8,152.5,155,162.5,162.5,62.5,65,-67.5,65,150,157.5,-162.5,157.5,385,,
3,Coryn Davidson,F,SBD,FR-V,84+,Raw,2001,,WI,112.8,125,137.5,145,145,60,62.5,-65,62.5,160,170,-177.5,170,377.5,,
4,Sydney Regan,F,SBD,FR-V,84+,Raw,2002,,WI,110.1,137.5,150,157.5,157.5,60,-65,-65,60,150,157.5,-162.5,157.5,375,,
5,Elvecia Najera,F,SBD,FR-V,84+,Raw,2001,,WI,131.9,130,135,-140,135,62.5,67.5,72.5,72.5,147.5,157.5,162.5,162.5,370,,
6,Mallory Olmstead,F,SBD,FR-V,84+,Raw,2001,,NE,107,135,137.5,-140,137.5,65,70,72.5,72.5,147.5,155,-157.5,155,365,,
7,Lorraine Newman,F,SBD,FR-V,84+,Raw,2001,,LA,147.65,125,137.5,150,150,55,62.5,-70,62.5,130,145,-152.5,145,357.5,,
8,Lauren Leedy,F,SBD,FR-V,84+,Raw,2002,,LA,99.35,132.5,-135,-135,132.5,52.5,-57.5,57.5,57.5,-162.5,165,-175,165,355,,
9,Ashanti Glasper,F,SBD,FR-V,84+,Raw,2002,,LA,88,125,140,-145,140,52.5,55,60,60,142.5,152.5,-155,152.5,352.5,,
10,Amelia Day,F,SBD,FR-V,84+,Raw,2003,,LA,111.9,-135,140,-150,140,55,62.5,-67.5,62.5,132.5,145,150,150,352.5,,
11,Caitlin Derrey,F,SBD,FR-V,84+,Raw,2000,,WA,114.85,122.5,-137.5,-137.5,122.5,67.5,-75,-75,67.5,130,155,-160,155,345,,
12,Ma'Ckayla Collins,F,SBD,FR-V,84+,Raw,2002,,LA,105.8,-125,125,142.5,142.5,60,70,-77.5,70,125,-135,-135,125,337.5,,
13,Alexandra Sanders,F,SBD,FR-V,84+,Raw,2001,,LA,98.05,97.5,105,-112.5,105,45,47.5,52.5,52.5,137.5,147.5,155,155,312.5,,
14,Emilea White,F,SBD,FR-V,84+,Raw,2001,,LA,104.4,102.5,112.5,125,125,55,57.5,60,60,117.5,125,-137.5,125,310,,
15,Hannah Chart,F,SBD,FR-V,84+,Raw,2001,Waterford Union High School,WI,121.95,117.5,125,-132.5,125,50,55,-57.5,55,117.5,-130,-130,117.5,297.5,,
16,Olivia Kempfer,F,SBD,FR-V,84+,Raw,2001,Mauston Powerlifting,WI,111.05,107.5,112.5,-117.5,112.5,47.5,-52.5,52.5,52.5,-125,125,-132.5,125,290,,
17,Gabrielle Boerner,F,SBD,FR-V,84+,Raw,2001,,LA,91.4,85,87.5,92.5,92.5,40,-47.5,-47.5,40,117.5,122.5,132.5,132.5,265,,
1,Liem Bui,M,SBD,M-JV,53,Single-ply,2003,Hershey Powerlifting,PA,52.1,152.5,-165,-165,152.5,85,87.5,-90,87.5,-152.5,-160,160,160,400,,
1,Corbin Weiss,M,SBD,M-JV,59,Single-ply,2003,Hershey Powerlifting,PA,58.55,142.5,155,165,165,85,90,-92.5,90,137.5,152.5,157.5,157.5,412.5,,
2,Tommy Huerta,M,SBD,M-JV,59,Single-ply,2003,Carrizo Springs,TX,58.95,140,-150,150,150,75,82.5,87.5,87.5,150,162.5,-177.5,162.5,400,,
3,Kevin Feldenzer,M,SBD,M-JV,59,Single-ply,2002,Hershey Powerlifting,PA,58.15,112.5,122.5,132.5,132.5,87.5,92.5,97.5,97.5,145,160,-165,160,390,,
4,Adam Dalferes,M,SBD,M-JV,59,Single-ply,2002,,LA,58.3,-142.5,142.5,-162.5,142.5,80,87.5,-90,87.5,140,150,-162.5,150,380,,
5,Davis McAlister IV,M,SBD,M-JV,59,Single-ply,2003,,TX,58.45,142.5,145,-165,145,-75,75,-82.5,75,137.5,152.5,-165,152.5,372.5,,
6,James Marsini,M,SBD,M-JV,59,Single-ply,2003,Hershey Powerlifting,PA,57.4,122.5,135,142.5,142.5,72.5,-77.5,77.5,77.5,120,132.5,145,145,365,,
7,Jacob Pennington,M,SBD,M-JV,59,Single-ply,2004,Covington Powerlifting,LA,57.15,107.5,117.5,125,125,70,77.5,-82.5,77.5,125,132.5,142.5,142.5,345,,
8,Gabriel Kumbier,M,SBD,M-JV,59,Single-ply,2003,Woodward Academy,IA,57.9,105,117.5,-127.5,117.5,60,67.5,-75,67.5,135,150,-162.5,150,335,,
1,Omar Moctezuma,M,SBD,M-JV,66,Single-ply,2002,West Monroe High School,LA,65.6,157.5,175,182.5,182.5,92.5,100,102.5,102.5,157.5,172.5,182.5,182.5,467.5,,
2,Oscar Mercado,M,SBD,M-JV,66,Single-ply,2003,,TX,66,140,165,170,170,85,95,100,100,155,167.5,175,175,445,,
3,Ty'Lance Marcell,M,SBD,M-JV,66,Single-ply,2002,Woodward Academy,IA,64.85,150,165,-177.5,165,82.5,90,-97.5,90,155,170,180,180,435,,
4,Kyle Clark #1,M,SBD,M-JV,66,Single-ply,2002,,LA,64.15,145,152.5,-160,152.5,92.5,97.5,105,105,147.5,155,175,175,432.5,,
5,Jeremiah Brintley,M,SBD,M-JV,66,Single-ply,2004,Woodward Academy,IA,64.45,115,130,-137.5,130,85,95,-105,95,160,175,-190,175,400,,
6,Will Hammond,M,SBD,M-JV,66,Single-ply,2003,Germantown Powerlifting,WI,62.15,142.5,152.5,-162.5,152.5,60,70,72.5,72.5,147.5,160,162.5,162.5,387.5,,
7,Jack Schmucki,M,SBD,M-JV,66,Single-ply,2003,Germantown Powerlifting,WI,63.7,-147.5,147.5,-165,147.5,65,72.5,75,75,145,155,162.5,162.5,385,,
8,Cooper Brasher,M,SBD,M-JV,66,Single-ply,2003,West Monroe High School,LA,65.25,120,132.5,140,140,82.5,87.5,-92.5,87.5,135,155,-175,155,382.5,,
9,Grantham Zimmerman,M,SBD,M-JV,66,Single-ply,2003,Hershey Powerlifting,PA,65,115,127.5,135,135,72.5,80,-82.5,80,122.5,140,150,150,365,,
1,Cole Batchelor,M,SBD,M-JV,74,Single-ply,2003,Germantown Powerlifting,WI,72,160,-167.5,-167.5,160,92.5,97.5,-102.5,97.5,162.5,172.5,177.5,177.5,435,,
2,Sam Purcell,M,SBD,M-JV,74,Single-ply,2002,,WI,73.1,-157.5,-157.5,157.5,157.5,85,90,92.5,92.5,170,182.5,-187.5,182.5,432.5,,
3,Gabe Hoosier,M,SBD,M-JV,74,Single-ply,2004,,LA,71.4,150,162.5,172.5,172.5,85,87.5,90,90,145,152.5,-167.5,152.5,415,,
4,Manuel Perez,M,SBD,M-JV,74,Single-ply,2002,Woodward Academy,IA,71.45,130,147.5,160,160,95,-105,-105,95,155,-170,-182.5,155,410,,
5,Patrick Gardner,M,SBD,M-JV,74,Single-ply,2002,Hershey Powerlifting,PA,73.05,140,150,-160,150,75,82.5,-90,82.5,142.5,162.5,172.5,172.5,405,,
6,Adam Nichols,M,SBD,M-JV,74,Single-ply,2003,Abbeville High School,LA,69.2,140,-155,155,155,85,92.5,-97.5,92.5,120,135,155,155,402.5,,
7,Jose Morales-Ramirez,M,SBD,M-JV,74,Single-ply,2003,Woodward Academy,IA,72.6,127.5,142.5,-152.5,142.5,87.5,-97.5,-97.5,87.5,135,150,-165,150,380,,
1,A.J. Howard,M,SBD,M-JV,83,Single-ply,2004,West Monroe High School,LA,82.2,-160,160,182.5,182.5,87.5,-92.5,-92.5,87.5,197.5,217.5,227.5,227.5,497.5,,
2,Jackson Mcdonald,M,SBD,M-JV,83,Single-ply,2003,West Monroe High School,LA,81.25,160,170,185,185,92.5,100,102.5,102.5,170,187.5,205,205,492.5,,
3,Nazear Lopez,M,SBD,M-JV,83,Single-ply,2003,Woodward Academy,IA,82.05,160,182.5,195,195,97.5,-110,-110,97.5,157.5,170,182.5,182.5,475,,
4,Carson Batchelor,M,SBD,M-JV,83,Single-ply,2003,Germantown Powerlifting,WI,76.85,167.5,177.5,-182.5,177.5,90,97.5,-102.5,97.5,177.5,187.5,-200,187.5,462.5,,
5,Luke McCorkle,M,SBD,M-JV,83,Single-ply,2003,Hershey Powerlifting,PA,80.7,150,-162.5,162.5,162.5,92.5,100,105,105,155,172.5,182.5,182.5,450,,
6,Ragan Reynolds,M,SBD,M-JV,83,Single-ply,2003,West Monroe High School,LA,82.85,157.5,172.5,180,180,100,105,107.5,107.5,135,152.5,162.5,162.5,450,,
7,Derik Saint Fleurant,M,SBD,M-JV,83,Single-ply,2002,Woodward Academy,IA,80.2,157.5,177.5,185,185,112.5,-125,-125,112.5,-150,150,-165,150,447.5,,
8,Clay Riehl,M,SBD,M-JV,83,Single-ply,2003,St. Mary’s Catholic,WI,78.5,-130,142.5,162.5,162.5,-87.5,97.5,107.5,107.5,165,175,-195,175,445,,
1,Mase Many,M,SBD,M-JV,93,Single-ply,2003,West Monroe High School,LA,91.2,210,227.5,235,235,112.5,117.5,122.5,122.5,170,185,195,195,552.5,,
2,JD Johnson,M,SBD,M-JV,93,Single-ply,2003,West Monroe High School,LA,90.35,197.5,212.5,220,220,127.5,132.5,137.5,137.5,142.5,157.5,-165,157.5,515,,
3,Maclain Yahr,M,SBD,M-JV,93,Single-ply,2002,Germantown Powerlifting,WI,88.75,-180,180,192.5,192.5,107.5,115,120,120,170,182.5,190,190,502.5,,
4,Azuriah Stallcup,M,SBD,M-JV,93,Single-ply,2004,Woodward Academy,IA,85.2,-160,160,180,180,85,90,95,95,182.5,202.5,-227.5,202.5,477.5,,
5,Caleb Pennington,M,SBD,M-JV,93,Single-ply,2003,Covington Powerlifting,LA,91.9,-170,-170,170,170,127.5,135,-140,135,-140,140,147.5,147.5,452.5,,
1,Logan Carpenter,M,SBD,M-JV,105,Single-ply,2003,Covington Powerlifting,LA,104.95,205,-220,-220,205,-142.5,142.5,-152.5,142.5,182.5,197.5,210,210,557.5,,
2,Gabriel Knapp,M,SBD,M-JV,105,Single-ply,2002,,LA,97.8,210,-222.5,-222.5,210,135,137.5,-147.5,137.5,205,-207.5,-207.5,205,552.5,,
3,Luke Corrent,M,SBD,M-JV,105,Single-ply,2003,West Monroe High School,LA,97.2,187.5,-205,205,205,117.5,122.5,127.5,127.5,172.5,187.5,192.5,192.5,525,,
4,Robert Swenson,M,SBD,M-JV,105,Single-ply,2003,Necedah Powerlifting,WI,103.85,197.5,210,225,225,100,107.5,115,115,165,175,185,185,525,,
5,Peyton Bennett,M,SBD,M-JV,105,Single-ply,2004,West Monroe High School,LA,94.25,185,197.5,-212.5,197.5,112.5,117.5,122.5,122.5,170,177.5,-180,177.5,497.5,,
1,Aiden Bellot,M,SBD,M-JV,120,Single-ply,2001,West Monroe High School,LA,117.25,237.5,-257.5,-257.5,237.5,150,155,157.5,157.5,207.5,-225,-225,207.5,602.5,,
2,Hunter Whitlock,M,SBD,M-JV,120,Single-ply,2003,West Monroe High School,LA,117.4,225,242.5,250,250,135,-142.5,142.5,142.5,170,185,197.5,197.5,590,,
3,Skyler Metivier,M,SBD,M-JV,120,Single-ply,2002,Woodward Academy,IA,115.4,185,205,217.5,217.5,-120,120,140,140,165,182.5,-232.5,182.5,540,,
4,Emory Guinn,M,SBD,M-JV,120,Single-ply,2002,,LA,116.45,142.5,160,172.5,172.5,95,102.5,-107.5,102.5,165,180,200,200,475,,
1,Jakyrin Williams,M,SBD,M-JV,120+,Single-ply,2001,West Monroe High School,LA,128.3,217.5,-235,235,235,142.5,-150,-150,142.5,175,190,200,200,577.5,,
1,Freddie Price,M,SBD,M-V,53,Single-ply,2001,,LA,52.75,127.5,-147.5,155,155,82.5,95,100,100,142.5,157.5,182.5,182.5,437.5,,
2,Lane Morello,M,SBD,M-V,53,Single-ply,2002,Covington Powerlifting,LA,52.7,-130,132.5,-142.5,132.5,82.5,92.5,-97.5,92.5,142.5,152.5,172.5,172.5,397.5,,
3,Connor Oviedo,M,SBD,M-V,53,Single-ply,2000,,LA,52.9,-142.5,147.5,-155,147.5,82.5,87.5,92.5,92.5,142.5,150,157.5,157.5,397.5,,
4,Jaelin Wells,M,SBD,M-V,53,Single-ply,2003,Covington Powerlifting,LA,52.6,130,-132.5,-135,130,82.5,-92.5,-92.5,82.5,-135,140,150,150,362.5,,
5,Jacob Graves,M,SBD,M-V,53,Single-ply,2001,West Monroe High School,LA,51.8,117.5,132.5,137.5,137.5,62.5,67.5,72.5,72.5,120,137.5,150,150,360,,
1,Charles Shuford,M,SBD,M-V,59,Single-ply,2002,Abbeville High School,LA,58.8,197.5,217.5,227.5,227.5,125,135,142.5,142.5,210,232.5,-245,232.5,602.5,,
2,Devon Davis,M,SBD,M-V,59,Single-ply,2001,Hershey Powerlifting,PA,58.5,175,180,185,185,-107.5,107.5,117.5,117.5,185,197.5,205,205,507.5,,
3,Dylon Palmer,M,SBD,M-V,59,Single-ply,2000,,LA,58.6,182.5,190,-197.5,190,85,92.5,95,95,167.5,175,182.5,182.5,467.5,,
4,Jonathan Vidrine,M,SBD,M-V,59,Single-ply,2001,Covington Powerlifting,LA,58.6,165,175,180,180,110,120,-125,120,150,160,165,165,465,,
5,William O'Neal,M,SBD,M-V,59,Single-ply,2001,,LA,58.4,160,-165,-175,160,-110,110,115,115,162.5,170,185,185,460,,
6,Daelyn Johnson,M,SBD,M-V,59,Single-ply,2002,,LA,58.9,142.5,-175,175,175,80,90,95,95,142.5,167.5,180,180,450,,
7,Carsen Collins,M,SBD,M-V,59,Single-ply,2002,,LA,58.35,167.5,175,-180,175,87.5,92.5,-97.5,92.5,167.5,177.5,-192.5,177.5,445,,
8,Hunter Hall,M,SBD,M-V,59,Single-ply,2000,,LA,57.55,-145,147.5,-157.5,147.5,82.5,-90,90,90,185,195,205,205,442.5,,
9,Brayden Londerville,M,SBD,M-V,59,Single-ply,2002,Neenah Powerlifting,WI,58.3,157.5,165,-170,165,75,-80,-80,75,180,190,-197.5,190,430,,
10,Jacob Manley #2,M,SBD,M-V,59,Single-ply,2000,West Monroe High School,LA,58.15,137.5,157.5,162.5,162.5,90,95,97.5,97.5,135,150,160,160,420,,
11,Tyler Fryday,M,SBD,M-V,59,Single-ply,2001,West Monroe High School,LA,58.4,137.5,157.5,-165,157.5,95,100,102.5,102.5,137.5,155,160,160,420,,
12,Luke Palermo,M,SBD,M-V,59,Single-ply,2002,Pope John Paul II High School,LA,58,-142.5,142.5,-167.5,142.5,87.5,-95,-95,87.5,170,180,-190,180,410,,
13,Christopher Hudson,M,SBD,M-V,59,Single-ply,2001,Slidell High School,LA,58.35,150,-160,-160,150,92.5,95,97.5,97.5,160,-165,-165,160,407.5,,
14,Nicholas Parks,M,SBD,M-V,59,Single-ply,2000,Northshore High School,LA,57.45,142.5,150,155,155,95,-100,100,100,135,-142.5,142.5,142.5,397.5,,
15,Jason Alvarez,M,SBD,M-V,59,Single-ply,2004,Abbeville High School,LA,58.8,122.5,137.5,147.5,147.5,80,87.5,-95,87.5,125,142.5,-155,142.5,377.5,,
16,Tremane Beal,M,SBD,M-V,59,Single-ply,2002,Germantown Powerlifting,WI,56.3,-130,130,142.5,142.5,75,80,87.5,87.5,130,142.5,-150,142.5,372.5,,
17,Matthew Porter,M,SBD,M-V,59,Single-ply,2002,,LA,57.6,130,132.5,-140,132.5,75,80,-82.5,80,127.5,135,142.5,142.5,355,,
DQ,Dylan Gostomski,M,SBD,M-V,59,Single-ply,2001,Cudahy High School,WI,58.4,-152.5,-162.5,-162.5,,97.5,100,-102.5,100,155,165,170,170,,,
1,Logan Pennington,M,SBD,M-V,66,Single-ply,2000,Covington Powerlifting,LA,64.3,212.5,220,225,225,127.5,-135,135,135,212.5,217.5,220,220,580,,
2,Brady Becker,M,SBD,M-V,66,Single-ply,2002,Pope John Paul II High School,MS,63.2,202.5,-212.5,212.5,212.5,105,142.5,147.5,147.5,210,215,-217.5,215,575,,
3,Peter Piparo,M,SBD,M-V,66,Single-ply,2000,Cudahy High School,WI,65.6,192.5,202.5,212.5,212.5,107.5,-112.5,-112.5,107.5,207.5,220,-230,220,540,,
4,Colby Wilson #1,M,SBD,M-V,66,Single-ply,2000,Slidell High School,LA,65.4,192.5,205,-210,205,132.5,-137.5,137.5,137.5,182.5,192.5,-197.5,192.5,535,,
5,Mason Impastato,M,SBD,M-V,66,Single-ply,2001,,LA,65.3,200,-210,-210,200,112.5,-120,120,120,205,-212.5,-215,205,525,,
6,Toran Tiller,M,SBD,M-V,66,Single-ply,2002,,LA,65.5,142.5,192.5,200,200,90,102.5,-105,102.5,142.5,-190,190,190,492.5,,
7,Drake Vidrine,M,SBD,M-V,66,Single-ply,2001,West Monroe High School,LA,65.7,157.5,170,185,185,95,100,102.5,102.5,167.5,182.5,197.5,197.5,485,,
8,Nicholas Johnson #1,M,SBD,M-V,66,Single-ply,2001,Neenah Powerlifting,WI,64.2,177.5,187.5,195,195,90,97.5,-100,97.5,190,-200,-200,190,482.5,,
9,Wallace Boutwell,M,SBD,M-V,66,Single-ply,2001,Covington Powerlifting,LA,65.4,175,180,-185,180,105,112.5,-120,112.5,-177.5,182.5,187.5,187.5,480,,
10,Logan Ladwig,M,SBD,M-V,66,Single-ply,2001,Necedah Powerlifting,WI,62.8,157.5,170,-182.5,170,67.5,72.5,-80,72.5,170,182.5,-190,182.5,425,,
11,Phillip McCoy,M,SBD,M-V,66,Single-ply,2002,Abbeville High School,LA,64.5,135,150,-167.5,150,77.5,85,90,90,147.5,165,-177.5,165,405,,
1,Dawson Stroik,M,SBD,M-V,74,Single-ply,2001,Germantown Powerlifting,WI,73.2,-250,250,262.5,262.5,160,-165,-165,160,227.5,237.5,242.5,242.5,665,,
2,Philip Nicaud,M,SBD,M-V,74,Single-ply,2000,,LA,73.25,-227.5,232.5,242.5,242.5,155,162.5,167.5,167.5,205,217.5,222.5,222.5,632.5,,
3,Calvin Dukes,M,SBD,M-V,74,Single-ply,2000,,MS,72.35,220,232.5,-240,232.5,117.5,122.5,-127.5,122.5,242.5,262.5,-272.5,262.5,617.5,,
4,Ezekiel Bankole,M,SBD,M-V,74,Single-ply,2002,Hershey Powerlifting,PA,73.05,205,220,227.5,227.5,105,112.5,117.5,117.5,225,237.5,242.5,242.5,587.5,,
5,Earl Brown,M,SBD,M-V,74,Single-ply,2000,,LA,73.75,185,205,-220,205,115,132.5,145,145,210,232.5,-245,232.5,582.5,,
6,Christian Alvarez #4,M,SBD,M-V,74,Single-ply,2002,Abbeville High School,LA,69.65,197.5,210,217.5,217.5,125,135,-145,135,192.5,207.5,-212.5,207.5,560,,
7,Evan Haugen,M,SBD,M-V,74,Single-ply,2001,Cudahy High School,WI,72.3,177.5,187.5,197.5,197.5,130,137.5,-142.5,137.5,180,195,205,205,540,,
8,Luke Rogers #3,M,SBD,M-V,74,Single-ply,2001,Covington Powerlifting,LA,73.3,195,-205,-205,195,110,-115,-115,110,200,212.5,220,220,525,,
9,Deion Williams,M,SBD,M-V,74,Single-ply,1999,Abbeville High School,LA,73.65,180,197.5,-207.5,197.5,110,117.5,-122.5,117.5,187.5,210,-227.5,210,525,,
1,Alexander Davis,M,SBD,M-V,83,Single-ply,2001,,LA,80.45,-245,245,-262.5,245,135,137.5,142.5,142.5,257.5,267.5,-277.5,267.5,655,,
2,Shane Travis,M,SBD,M-V,83,Single-ply,2001,,LA,80.55,197.5,205,-227.5,205,142.5,157.5,-167.5,157.5,250,-260,260,260,622.5,,
3,Grant Hartzog,M,SBD,M-V,83,Single-ply,2001,Covington Powerlifting,LA,80.5,207.5,217.5,-227.5,217.5,142.5,150,-160,150,225,240,-255,240,607.5,,
4,Rodney Robinson,M,SBD,M-V,83,Single-ply,2002,,LA,77.15,205,215,227.5,227.5,107.5,120,127.5,127.5,232.5,250,-267.5,250,605,,
5,Jack Anzalone,M,SBD,M-V,83,Single-ply,2000,,LA,82.45,-232.5,232.5,-240,232.5,125,135,142.5,142.5,212.5,227.5,-240,227.5,602.5,,
6,Addison Gaspard,M,SBD,M-V,83,Single-ply,2001,Abbeville High School,LA,80.95,205,215,-225,215,125,135,-142.5,135,225,245,-252.5,245,595,,
7,Kyllian Harper,M,SBD,M-V,83,Single-ply,2000,Hershey Powerlifting,PA,81.45,215,-230,-232.5,215,127.5,132.5,-150,132.5,212.5,230,-235,230,577.5,,
8,Kaulin Hornor,M,SBD,M-V,83,Single-ply,2001,,LA,77.3,207.5,-217.5,-217.5,207.5,142.5,147.5,-150,147.5,212.5,220,-225,220,575,,
9,Nathaniel Ramsey,M,SBD,M-V,83,Single-ply,2000,,WI,79.5,-205,207.5,220,220,110,117.5,-125,117.5,205,217.5,-227.5,217.5,555,,
10,Semaj Brown,M,SBD,M-V,83,Single-ply,2000,,LA,82.35,185,192.5,-215,192.5,90,102.5,115,115,200,220,240,240,547.5,,
11,Demarquis Hardwell,M,SBD,M-V,83,Single-ply,2001,,LA,82.6,185,-205,-227.5,185,105,120,-132.5,120,210,-232.5,-232.5,210,515,,
1,Sam Bassan,M,SBD,M-V,93,Single-ply,2001,,WI,86.85,-280,-280,280,280,175,-182.5,182.5,182.5,275,282.5,-290,282.5,745,,
2,Keevon Hines,M,SBD,M-V,93,Single-ply,2001,,LA,92.1,262.5,-282.5,-282.5,262.5,165,-170,170,170,265,282.5,-315,282.5,715,,
3,Shane Kierstyn,M,SBD,M-V,93,Single-ply,2001,,WI,90.4,-240,240,-245,240,-157.5,157.5,167.5,167.5,272.5,285,290,290,697.5,,
4,Jordan Gaston,M,SBD,M-V,93,Single-ply,1999,,LA,89,272.5,-290,-290,272.5,142.5,-157.5,-157.5,142.5,230,255,262.5,262.5,677.5,,
5,Alvaro Lopez,M,SBD,M-V,93,Single-ply,1999,Abbeville High School,LA,89.95,230,252.5,262.5,262.5,132.5,142.5,150,150,205,220,242.5,242.5,655,,
6,Elijah Harris,M,SBD,M-V,93,Single-ply,2000,West Monroe High School,LA,92.5,235,257.5,265,265,130,135,140,140,222.5,250,-275,250,655,,
7,Cedric Laird Jr,M,SBD,M-V,93,Single-ply,2002,Covington Powerlifting,LA,91.9,220,232.5,242.5,242.5,160,172.5,182.5,182.5,200,212.5,-230,212.5,637.5,,
8,Tucker Henderson,M,SBD,M-V,93,Single-ply,2000,,LA,92.1,227.5,237.5,247.5,247.5,135,142.5,-147.5,142.5,222.5,235,245,245,635,,
9,Dylan Wysocky,M,SBD,M-V,93,Single-ply,2001,,WI,89,240,250,-257.5,250,142.5,-150,-150,142.5,215,227.5,-240,227.5,620,,
10,Cory Wood,M,SBD,M-V,93,Single-ply,2001,,WI,89.2,227.5,237.5,-245,237.5,110,-117.5,117.5,117.5,225,-240,-240,225,580,,
11,Case Riehl,M,SBD,M-V,93,Single-ply,2000,St. Mary’s Catholic,WI,87.1,210,-242.5,-242.5,210,115,120,137.5,137.5,200,-215,215,215,562.5,,
DQ,Cameron Kinder,M,SBD,M-V,93,Single-ply,2004,,LA,88.75,230,-245,247.5,247.5,-145,-150,-150,,-230,,,,,,
1,Jerimyah Overton,M,SBD,M-V,105,Single-ply,2000,Abbeville High School,LA,99.7,282.5,305,-320,305,187.5,197.5,210,210,207.5,227.5,235,235,750,,
2,Talyn Adams,M,SBD,M-V,105,Single-ply,2001,,LA,101.1,250,267.5,290,290,152.5,167.5,-180,167.5,245,265,275,275,732.5,,
3,Xavier Williams,M,SBD,M-V,105,Single-ply,2001,,LA,101.7,255,262.5,267.5,267.5,-142.5,142.5,-147.5,142.5,300,310,-335,310,720,,
4,Austin Payne,M,SBD,M-V,105,Single-ply,2000,,WI,101.25,247.5,-262.5,262.5,262.5,117.5,152.5,162.5,162.5,260,267.5,-282.5,267.5,692.5,,
5,Cameron Williams #3,M,SBD,M-V,105,Single-ply,2002,Slidell High School,LA,101.7,-230,230,240,240,147.5,150,160,160,262.5,272.5,280,280,680,,
6,Alex Ochs,M,SBD,M-V,105,Single-ply,2001,Waterford Union High School,WI,105,237.5,-250,-250,237.5,170,182.5,-192.5,182.5,205,215,227.5,227.5,647.5,,
7,Nicholas Purcell,M,SBD,M-V,105,Single-ply,2001,St. Mary’s Catholic,WI,103,240,-257.5,-272.5,240,142.5,152.5,-165,152.5,240,-262.5,-262.5,240,632.5,,
DQ,Grant Saizan,M,SBD,M-V,105,Single-ply,2001,,LA,97.8,-262.5,-272.5,-272.5,,,,,,,,,,,,
1,Jason Toups,M,SBD,M-V,120,Single-ply,2000,,LA,117.85,285,-305,-305,285,172.5,182.5,190,190,240,255,-265,255,730,,
2,Randall Hughes,M,SBD,M-V,120,Single-ply,2001,West Monroe High School,LA,115.55,265,-290,-290,265,160,165,167.5,167.5,242.5,260,-272.5,260,692.5,,
3,Cody Stinson,M,SBD,M-V,120,Single-ply,2000,West Monroe High School,LA,106.05,235,257.5,-262.5,257.5,150,160,170,170,230,250,-260,250,677.5,,
4,Michael Parker #2,M,SBD,M-V,120,Single-ply,2002,,LA,112.55,255,265,272.5,272.5,142.5,150,-152.5,150,237.5,245,-257.5,245,667.5,,
5,Jaylen Holyfield,M,SBD,M-V,120,Single-ply,2000,West Monroe High School,LA,112.2,232.5,-257.5,257.5,257.5,142.5,147.5,155,155,217.5,235,240,240,652.5,,
6,Jaden Finley,M,SBD,M-V,120,Single-ply,2001,Germantown Powerlifting,WI,117.8,-200,200,215,215,120,,,120,-245,245,260,260,595,,
7,Zachary Hebert,M,SBD,M-V,120,Single-ply,2001,,LA,113.7,215,-227.5,227.5,227.5,130,-137.5,137.5,137.5,227.5,-247.5,-247.5,227.5,592.5,,
8,Mason Erickson,M,SBD,M-V,120,Single-ply,2001,,LA,110.5,185,195,212.5,212.5,135,-142.5,-145,135,225,235,-250,235,582.5,,
1,Jacobin Guilory,M,SBD,M-V,120+,Single-ply,2000,,LA,148.4,317.5,-327.5,327.5,327.5,-187.5,187.5,192.5,192.5,275,282.5,,282.5,802.5,,
2,Rayland Coleman,M,SBD,M-V,120+,Single-ply,2001,,LA,155.95,305,325,-335,325,175,185,-195,185,230,245,260,260,770,,
3,Clifford Lee,M,SBD,M-V,120+,Single-ply,2000,,LA,157.8,245,-250,-272.5,245,150,160,-182.5,160,230,-247.5,-247.5,230,635,,
DQ,Christian Corkran,M,SBD,M-V,120+,Single-ply,2002,,LA,135.25,-237.5,-237.5,,,,,,,,,,,,,
G,Dominick Evered,M,SBD,MR-G,59,Raw,2002,,WI,58.4,-102.5,-102.5,102.5,102.5,72.5,-75,-75,72.5,160,170,-175,170,345,,
G,Cade Cardenas,M,SBD,MR-G,93,Raw,2001,,LA,93,190,205,-215,205,-127.5,137.5,-142.5,137.5,190,202.5,-212.5,202.5,545,,
G,Clayton Malone,M,SBD,MR-G,120,Raw,2003,Calvary,LA,117.5,142.5,150,155,155,85,92.5,-102.5,92.5,-165,165,175,175,422.5,,
1,Nolan Davis,M,SBD,MR-JV,53,Raw,2003,Saint John’s High School,MA,51.75,92.5,100,107.5,107.5,52.5,57.5,-60,57.5,120,125,130,130,295,,
2,Christian Dimitri,M,SBD,MR-JV,53,Raw,2002,,LA,51.15,72.5,77.5,82.5,82.5,57.5,62.5,-65,62.5,102.5,115,125,125,270,,
3,Devin Balts,M,SBD,MR-JV,53,Raw,2004,Elk Mound High School,WI,49.65,72.5,77.5,-82.5,77.5,42.5,47.5,-50,47.5,95,100,105,105,230,,
1,Blake Burlingame,M,SBD,MR-JV,59,Raw,2002,Elk Mound High School,WI,58.55,100,105,-110,105,62.5,65,67.5,67.5,155,-160,-160,155,327.5,,
2,Keegan Wenande,M,SBD,MR-JV,59,Raw,2003,,SD,57.25,-95,95,-100,95,67.5,70,-72.5,70,137.5,145,150,150,315,,
3,Lane Lee,M,SBD,MR-JV,59,Raw,2002,Elk Mound High School,WI,57.35,97.5,105,110,110,57.5,-62.5,-62.5,57.5,132.5,140,-147.5,140,307.5,,
4,Zander Barr,M,SBD,MR-JV,59,Raw,2004,Mauston Powerlifting,WI,57.45,90,-97.5,-97.5,90,57.5,-60,-60,57.5,-125,125,137.5,137.5,285,,
5,Logan Holmes-Gertner,M,SBD,MR-JV,59,Raw,2002,,MN,55.1,72.5,-82.5,-92.5,72.5,-67.5,67.5,-70,67.5,122.5,132.5,142.5,142.5,282.5,,
6,Ian Grouvillia,M,SBD,MR-JV,59,Raw,2003,Abbeville High School,LA,58.05,72.5,80,,80,45,50,-55,50,117.5,135,-150,135,265,,
7,Alan Jimenez,M,SBD,MR-JV,59,Raw,2003,,WI,53.5,92.5,-100,-100,92.5,55,-60,-60,55,97.5,102.5,-110,102.5,250,,
DQ,Matthew Czaja,M,SBD,MR-JV,59,Raw,2003,Saint John’s High School,MA,58,-92.5,-97.5,-97.5,,52.5,55,57.5,57.5,117.5,120,122.5,122.5,,,
1,Jaiden Minigh,M,SBD,MR-JV,66,Raw,2002,,WI,65.25,155,162.5,167.5,167.5,77.5,80,82.5,82.5,182.5,192.5,200,200,450,,
2,Kyle Haas,M,SBD,MR-JV,66,Raw,2004,Germantown Powerlifting,WI,65.3,137.5,150,-160,150,70,75,77.5,77.5,170,180,185,185,412.5,,
3,Hunter Coleman,M,SBD,MR-JV,66,Raw,2002,,WY,63,130,137.5,-142.5,137.5,77.5,85,-87.5,85,-165,165,-185,165,387.5,,
4,Colin Ortego,M,SBD,MR-JV,66,Raw,2002,,LA,62.95,110,-120,120,120,75,77.5,80,80,140,152.5,-160,152.5,352.5,,
5,Brayan Dela Cruz,M,SBD,MR-JV,66,Raw,2003,,WI,63.25,102.5,-107.5,-110,102.5,75,-80,-80,75,125,132.5,137.5,137.5,315,,
6,Wyatt Wilken,M,SBD,MR-JV,66,Raw,2002,Waterford Union High School,WI,65.15,-75,75,82.5,82.5,45,52.5,-60,52.5,110,115,122.5,122.5,257.5,,
1,Aaron White,M,SBD,MR-JV,74,Raw,2003,,LA,73.75,137.5,147.5,155,155,100,105,110,110,195,207.5,-212.5,207.5,472.5,,
2,Bryce Henrichs,M,SBD,MR-JV,74,Raw,2003,Waterford Union High School,WI,72.6,170,172.5,-177.5,172.5,90,-95,-95,90,190,-200,-202.5,190,452.5,,
3,Logan Zyduck,M,SBD,MR-JV,74,Raw,2002,,WI,71.1,137.5,147.5,162.5,162.5,70,82.5,87.5,87.5,152.5,167.5,175,175,425,,
4,Drew Smith,M,SBD,MR-JV,74,Raw,2003,,MS,70.7,140,-150,150,150,80,85,-90,85,140,150,155,155,390,,
5,Noah Richard,M,SBD,MR-JV,74,Raw,2002,,LA,67.85,110,117.5,127.5,127.5,65,72.5,-77.5,72.5,140,162.5,167.5,167.5,367.5,,
6,Brady Anderson,M,SBD,MR-JV,74,Raw,2003,Waterford Union High School,WI,70.35,125,127.5,-130,127.5,80,-82.5,82.5,82.5,147.5,157.5,-170,157.5,367.5,,
7,Issiah Jelden,M,SBD,MR-JV,74,Raw,2002,Waterford Union High School,WI,71,120,122.5,-127.5,122.5,75,-80,80,80,165,-175,-180,165,367.5,,
8,Liam Hartson,M,SBD,MR-JV,74,Raw,2003,Saint John’s High School,MA,67.7,25,-120,,25,67.5,72.5,-77.5,72.5,60,,,60,157.5,,
1,Alex Sydor,M,SBD,MR-JV,83,Raw,2002,,NY,81.25,200,215,-217.5,215,110,122.5,-125,122.5,220,-235,235,235,572.5,,
2,Adam Viramontes,M,SBD,MR-JV,83,Raw,2003,,CA,80.85,175,-190,-190,175,150,-157.5,157.5,157.5,200,-212.5,212.5,212.5,545,,
3,Reed Witkoski,M,SBD,MR-JV,83,Raw,2002,,PA,81.65,-185,190,192.5,192.5,112.5,120,-125,120,212.5,227.5,-237.5,227.5,540,,
4,Colton Wells,M,SBD,MR-JV,83,Raw,2002,,IN,80.55,157.5,167.5,-172.5,167.5,110,115,-120,115,180,192.5,195,195,477.5,,
5,Slade Irvine,M,SBD,MR-JV,83,Raw,2002,,MN,82.15,-162.5,167.5,172.5,172.5,100,-105,-105,100,187.5,195,200,200,472.5,,
6,Dillon Lecy,M,SBD,MR-JV,83,Raw,2003,,WI,76.6,155,165,172.5,172.5,82.5,87.5,-90,87.5,185,195,-207.5,195,455,,
7,Aiden Gaedcke,M,SBD,MR-JV,83,Raw,2002,,MI,79.15,122.5,-142.5,145,145,92.5,105,-115,105,170,205,-210,205,455,,
8,Andrew Cargill #1,M,SBD,MR-JV,83,Raw,2002,,GA,81.75,140,150,157.5,157.5,90,100,110,110,185,-200,-205,185,452.5,,
9,Joseph Theall,M,SBD,MR-JV,83,Raw,2003,Abbeville High School,LA,79.15,140,155,-165,155,90,97.5,-102.5,97.5,165,185,195,195,447.5,,
10,Westin Boyd,M,SBD,MR-JV,83,Raw,2003,,MS,80.45,145,162.5,-170,162.5,72.5,80,-85,80,165,182.5,187.5,187.5,430,,
11,Trace Lein,M,SBD,MR-JV,83,Raw,2003,St. Mary’s Catholic,WI,81.6,127.5,-132.5,-132.5,127.5,65,-67.5,-67.5,65,155,-162.5,162.5,162.5,355,,
1,Elijah Schutz,M,SBD,MR-JV,93,Raw,2004,Germantown Powerlifting,WI,91.6,137.5,147.5,157.5,157.5,82.5,87.5,90,90,182.5,195,207.5,207.5,455,,
2,Zachary O'Toole,M,SBD,MR-JV,93,Raw,2003,Saint John’s High School,MA,83.45,130,140,150,150,75,80,-85,80,160,172.5,195,195,425,,
3,Patrick Agora,M,SBD,MR-JV,93,Raw,2002,Saint John’s High School,MA,85.9,142.5,-152.5,155,155,70,75,80,80,157.5,170,190,190,425,,
1,Kadan Downing,M,SBD,MR-JV,105,Raw,2003,,WI,97.6,167.5,185,200,200,110,120,122.5,122.5,185,200,-207.5,200,522.5,,
1,Alex Ammerman,M,SBD,MR-JV,120,Raw,2003,,IL,113.85,182.5,192.5,200,200,110,117.5,120,120,205,230,-242.5,230,550,,
2,Ian Schaal,M,SBD,MR-JV,120,Raw,2002,Waterford Union High School,WI,111.45,152.5,-160,162.5,162.5,87.5,90,92.5,92.5,200,207.5,-212.5,207.5,462.5,,
3,Junious Marchand,M,SBD,MR-JV,120,Raw,2002,,LA,107.78,145,152.5,-167.5,152.5,87.5,-95,-95,87.5,195,207.5,215,215,455,,
4,Rolando Perea,M,SBD,MR-JV,120,Raw,2002,,MA,116.5,120,130,140,140,92.5,97.5,-102.5,97.5,145,152.5,160,160,397.5,,
5,Sebastian Woyach,M,SBD,MR-JV,120,Raw,2003,,WI,110.3,135,142.5,-147.5,142.5,85,87.5,-90,87.5,142.5,150,-160,150,380,,
1,Hayden Cox,M,SBD,MR-JV,120+,Raw,2002,,LA,148.3,175,192.5,202.5,202.5,110,117.5,-122.5,117.5,177.5,187.5,-202.5,187.5,507.5,,
2,Jace Miley,M,SBD,MR-JV,120+,Raw,2002,St. Mary’s Catholic,LA,123.85,175,182.5,-185,182.5,90,92.5,97.5,97.5,175,-180,-180,175,455,,
3,Drew Hinrichs,M,SBD,MR-JV,120+,Raw,2003,Waterford Union High School,WI,144.35,130,137.5,142.5,142.5,92.5,97.5,-105,97.5,185,192.5,202.5,202.5,442.5,,
4,Jared Litty,M,SBD,MR-JV,120+,Raw,2003,Mauston Powerlifting,WI,122.9,135,-142.5,142.5,142.5,97.5,102.5,105,105,165,177.5,185,185,432.5,,
1,Bodie LaCoe,M,SBD,MR-V,53,Raw,2003,,PA,51.5,130,140,147.5,147.5,72.5,85,-90,85,195,205,217.5,217.5,450,,
2,Jacob Bartelt,M,SBD,MR-V,53,Raw,2004,Winneconne,WI,51.6,97.5,105,-112.5,105,60,65,67.5,67.5,125,142.5,145,145,317.5,,
3,Remington Ladd,M,SBD,MR-V,53,Raw,2002,,WI,52.2,65,72.5,-77.5,72.5,60,-67.5,-67.5,60,100,105,110,110,242.5,,
4,Dawson Paxton,M,SBD,MR-V,53,Raw,2002,,LA,51.8,85,-97.5,-97.5,85,40,47.5,-55,47.5,85,97.5,-105,97.5,230,,
1,Tucker Thompson,M,SBD,MR-V,59,Raw,2003,,NC,58.8,130,147.5,155,155,80,90,92.5,92.5,140,155,165,165,412.5,,
2,Thomas Schell,M,SBD,MR-V,59,Raw,2001,,WI,58.1,125,132.5,-140,132.5,85,90,95,95,142.5,157.5,167.5,167.5,395,,
3,Mike Monfredo,M,SBD,MR-V,59,Raw,2000,,MA,58.3,-145,145,-152.5,145,87.5,92.5,95,95,140,150,155,155,395,,
4,Kolby Pierce,M,SBD,MR-V,59,Raw,2001,,MI,57.6,132.5,137.5,145,145,85,92.5,95,95,135,142.5,152.5,152.5,392.5,,
5,Trevor Bordelon,M,SBD,MR-V,59,Raw,2001,,LA,57.8,117.5,125,135,135,72.5,80,85,85,160,-170,-170,160,380,,
6,Fredy Velasquez,M,SBD,MR-V,59,Raw,2001,,NE,58.6,117.5,-122.5,-122.5,117.5,75,77.5,-80,77.5,-167.5,167.5,-170,167.5,362.5,,
7,Justin Rife,M,SBD,MR-V,59,Raw,2000,,WI,58,-120,120,-122.5,120,65,70,-75,70,142.5,155,162.5,162.5,352.5,,
8,Daniel Zhang,M,SBD,MR-V,59,Raw,2001,Saint John’s High School,MA,58.4,90,95,-100,95,87.5,-90,-90,87.5,140,147.5,150,150,332.5,,
9,Jack Narduzzi,M,SBD,MR-V,59,Raw,2002,Waterford Union High School,WI,55,105,110,-117.5,110,65,67.5,70,70,120,127.5,-137.5,127.5,307.5,,
1,Colton Steyer,M,SBD,MR-V,66,Raw,2001,,WI,65.25,170,180,-190,180,105,115,-120,115,170,192.5,200,200,495,,
2,Jackson Jaeger,M,SBD,MR-V,66,Raw,2001,,WI,64.75,157.5,165,170,170,95,-100,-100,95,202.5,212.5,-230,212.5,477.5,,
3,Joshua Halverson,M,SBD,MR-V,66,Raw,2002,,WI,65.35,137.5,142.5,150,150,75,82.5,-85,82.5,192.5,205,-207.5,205,437.5,,
4,Sergio Jimenez,M,SBD,MR-V,66,Raw,2001,,WI,64.2,145,152.5,162.5,162.5,85,90,95,95,150,160,170,170,427.5,,
5,Nathan Jansen,M,SBD,MR-V,66,Raw,2001,,WI,64.3,135,142.5,-147.5,142.5,92.5,97.5,-100,97.5,-165,-177.5,177.5,177.5,417.5,,
6,Cooper Kastenschmidt,M,SBD,MR-V,66,Raw,2001,Laconia Powerlifting Club,WI,64.8,137.5,145,150,150,67.5,72.5,-75,72.5,175,187.5,195,195,417.5,,
7,Nicolas Johnson,M,SBD,MR-V,66,Raw,2002,,MS,65.5,115,132.5,-150,132.5,75,85,-95,85,182.5,195,-197.5,195,412.5,,
8,Devin Lang,M,SBD,MR-V,66,Raw,2001,,WI,65.35,125,127.5,132.5,132.5,67.5,72.5,-75,72.5,182.5,187.5,190,190,395,,
9,William Breunig,M,SBD,MR-V,66,Raw,2002,Mauston Powerlifting,WI,65.45,122.5,-137.5,-137.5,122.5,82.5,87.5,-92.5,87.5,170,180,185,185,395,,
10,Sawyer Schnettler,M,SBD,MR-V,66,Raw,2002,,WI,61.8,110,117.5,125,125,82.5,85,-90,85,152.5,157.5,165,165,375,,
11,Caden Bealer,M,SBD,MR-V,66,Raw,2004,,LA,62.75,120,-130,137.5,137.5,57.5,72.5,-82.5,72.5,130,142.5,-152.5,142.5,352.5,,
12,Ben Lawson,M,SBD,MR-V,66,Raw,2002,Saint John’s High School,MA,63.6,117.5,122.5,127.5,127.5,65,67.5,70,70,135,145,150,150,347.5,,
DQ,Jesse Bletsch,M,SBD,MR-V,66,Raw,2001,,WI,63.55,125,-137.5,-137.5,125,102.5,-105,-105,102.5,-182.5,-182.5,-185,,,,
DQ,Aiden Diedrich,M,SBD,MR-V,66,Raw,2001,,SD,65.7,170,175,-180,175,82.5,-85,-85,82.5,-212.5,-212.5,-212.5,,,,
1,Aidan Roeder,M,SBD,MR-V,74,Raw,2001,,IL,72.55,192.5,195,210,210,110,115,117.5,117.5,247.5,257.5,-265,257.5,585,,
2,Ethan Puck,M,SBD,MR-V,74,Raw,2001,,IN,72.9,200,212.5,-220,212.5,132.5,137.5,140,140,227.5,-240,-240,227.5,580,,
3,Moises Medina,M,SBD,MR-V,74,Raw,2002,,WI,73.95,195,210,217.5,217.5,120,125,130,130,215,225,-232.5,225,572.5,,
4,Genesis Correa,M,SBD,MR-V,74,Raw,2001,Cudahy High School,WI,74,182.5,192.5,202.5,202.5,107.5,110,-112.5,110,207.5,220,227.5,227.5,540,,
5,Eric Schroeder,M,SBD,MR-V,74,Raw,2000,,IN,73.6,195,207.5,-215,207.5,100,105,112.5,112.5,195,210,217.5,217.5,537.5,,
6,Tristan Scheller,M,SBD,MR-V,74,Raw,2000,,MA,73.75,175,-180,185,185,125,-132.5,-132.5,125,192.5,200,210,210,520,,
7,Mitchell Belland,M,SBD,MR-V,74,Raw,2001,,MN,71.3,175,185,195,195,102.5,110,-112.5,110,187.5,197.5,-202.5,197.5,502.5,,
8,Parker Leisses,M,SBD,MR-V,74,Raw,2000,,WI,74,152.5,157.5,162.5,162.5,102.5,110,-112.5,110,205,212.5,-215,212.5,485,,
9,Erik Rohloff,M,SBD,MR-V,74,Raw,2001,,WI,73.9,157.5,165,-167.5,165,97.5,100,102.5,102.5,205,-222.5,-222.5,205,472.5,,
10,Jason Wei,M,SBD,MR-V,74,Raw,2000,,MA,73.55,180,190,-200,190,82.5,-87.5,90,90,170,180,-187.5,180,460,,
11,Jordan Ankney,M,SBD,MR-V,74,Raw,2002,,IN,73.4,165,175,-182.5,175,85,92.5,95,95,157.5,167.5,175,175,445,,
12,Jacob Davies,M,SBD,MR-V,74,Raw,2001,Laconia Powerlifting Club,WI,73.5,137.5,145,147.5,147.5,85,92.5,-95,92.5,180,185,195,195,435,,
13,Lex Frahm,M,SBD,MR-V,74,Raw,2002,Neenah Powerlifting,WI,73.9,-142.5,150,-155,150,85,92.5,100,100,150,-170,170,170,420,,
14,Alex Sackett,M,SBD,MR-V,74,Raw,2002,,WI,71.5,142.5,152.5,155,155,90,97.5,-102.5,97.5,142.5,162.5,-175,162.5,415,,
15,Evan Bjorge,M,SBD,MR-V,74,Raw,2002,Waterford Union High School,WI,72.6,142.5,150,-155,150,72.5,77.5,-80,77.5,165,172.5,-182.5,172.5,400,,
DQ,Thomas Benz,M,SBD,MR-V,74,Raw,2000,,SD,72.3,140,147.5,-152.5,147.5,77.5,-82.5,-82.5,77.5,-187.5,-187.5,-187.5,,,,
DQ,Pascal Porche,M,SBD,MR-V,74,Raw,2001,,LA,73.3,165,-175,-182.5,165,102.5,110,115,115,225,247.5,-257.5,247.5,,,
DQ,Sean Nguyen #1,M,SBD,MR-V,74,Raw,2001,,CA,73.6,-227.5,-227.5,-227.5,,137.5,-142.5,-142.5,137.5,227.5,,,227.5,,,
1,Brenden Foust,M,SBD,MR-V,83,Raw,2000,,OK,81.75,-220,-220,220,220,145,157.5,-162.5,157.5,225,-232.5,-232.5,225,602.5,,
2,Harol Molina,M,SBD,MR-V,83,Raw,2000,,NE,82.05,207.5,-215,-215,207.5,150,-152.5,-152.5,150,245,-252.5,-252.5,245,602.5,,
3,Adam Born,M,SBD,MR-V,83,Raw,2001,,IL,79.3,210,225,232.5,232.5,100,-102.5,-102.5,100,230,-250,250,250,582.5,,
4,Nicholas Grewe,M,SBD,MR-V,83,Raw,2000,Winneconne,WI,81.3,200,202.5,215,215,115,122.5,-132.5,122.5,220,230,-250,230,567.5,,
5,Liam McCauley,M,SBD,MR-V,83,Raw,2001,,LA,81.5,192.5,-205,-205,192.5,135,-140,-140,135,207.5,215,227.5,227.5,555,,
6,Kyle Monfredo,M,SBD,MR-V,83,Raw,2000,,MA,81.2,185,190,197.5,197.5,105,110,-117.5,110,195,210,220,220,527.5,,
7,Maxwell Bidic,M,SBD,MR-V,83,Raw,2001,,NJ,81.3,152.5,167.5,182.5,182.5,120,-132.5,-132.5,120,200,215,222.5,222.5,525,,
8,Michael Fritz,M,SBD,MR-V,83,Raw,2001,,WI,74.1,165,170,175,175,112.5,122.5,127.5,127.5,207.5,-217.5,217.5,217.5,520,,
9,Jonah Picasso,M,SBD,MR-V,83,Raw,2001,,SD,81.55,190,192.5,-195,192.5,105,110,-112.5,110,205,215,-220,215,517.5,,
10,David Blackburn,M,SBD,MR-V,83,Raw,2000,,TX,82.35,190,195,200,200,110,112.5,-115,112.5,200,-207.5,-207.5,200,512.5,,
11,Andrew Wein,M,SBD,MR-V,83,Raw,2001,Winneconne,WI,81.15,-175,175,187.5,187.5,82.5,95,102.5,102.5,187.5,192.5,212.5,212.5,502.5,,
12,Dakota Lane,M,SBD,MR-V,83,Raw,2001,,WI,82.4,167.5,177.5,-185,177.5,107.5,112.5,-117.5,112.5,207.5,-217.5,-217.5,207.5,497.5,,
13,Jonathan Boehnlein,M,SBD,MR-V,83,Raw,2001,Winneconne,WI,77,162.5,170,177.5,177.5,97.5,105,107.5,107.5,190,197.5,205,205,490,,
14,Alex Turner #2,M,SBD,MR-V,83,Raw,2000,Laconia Powerlifting Club,WI,79.9,175,182.5,-192.5,182.5,100,105,-107.5,105,180,-192.5,192.5,192.5,480,,
15,Colton Wells,M,SBD,MR-V,83,Raw,2002,,IN,80.55,157.5,167.5,-172.5,167.5,110,115,-120,115,180,192.5,195,195,477.5,,
16,Chyphes Hambric,M,SBD,MR-V,83,Raw,2001,,TX,79.2,160,170,175,175,87.5,92.5,-97.5,92.5,187.5,195,207.5,207.5,475,,
17,Dontae Dunaway,M,SBD,MR-V,83,Raw,2000,Abbeville High School,LA,80.9,137.5,160,172.5,172.5,85,95,-102.5,95,177.5,197.5,202.5,202.5,470,,
18,Trey Zwiefelhofer,M,SBD,MR-V,83,Raw,2000,,WI,78.35,147.5,152.5,157.5,157.5,97.5,100,102.5,102.5,202.5,-217.5,-217.5,202.5,462.5,,
19,Parker Paluch,M,SBD,MR-V,83,Raw,2001,,SD,81.2,165,-175,-175,165,92.5,-97.5,-97.5,92.5,187.5,195,-200,195,452.5,,
20,Logan Hayman,M,SBD,MR-V,83,Raw,2001,,WI,78.2,160,170,,170,107.5,115,-120,115,160,,,160,445,,
21,Wyatt Nichols,M,SBD,MR-V,83,Raw,2000,,WI,81.4,152.5,-162.5,-162.5,152.5,90,-95,-95,90,200,-212.5,-212.5,200,442.5,,
DQ,Jordan Rentschler,M,SBD,MR-V,83,Raw,2000,,SD,81.4,-152.5,-160,-160,,102.5,107.5,-110,107.5,195,-205,205,205,,,
DQ,Ethan Rausch,M,SBD,MR-V,83,Raw,2001,,SD,81.9,-207.5,-217.5,-217.5,,117.5,127.5,-135,127.5,197.5,207.5,-215,207.5,,,
1,Hayden Willis #1,M,SBD,MR-V,93,Raw,2001,,LA,89.95,237.5,255,-265,255,140,150,-157.5,150,280,-330,-330,280,685,,
2,Terry Ferrier,M,SBD,MR-V,93,Raw,2000,,LA,91.55,200,227.5,-235,227.5,125,137.5,142.5,142.5,207.5,227.5,237.5,237.5,607.5,,
3,Luke Miller #6,M,SBD,MR-V,93,Raw,2000,,OH,90.8,182.5,195,205,205,110,117.5,125,125,217.5,230,242.5,242.5,572.5,,
4,Austin Koch,M,SBD,MR-V,93,Raw,2000,,WI,89,180,190,-200,190,120,127.5,130,130,230,237.5,242.5,242.5,562.5,,
5,Alex Wallin,M,SBD,MR-V,93,Raw,2001,,WI,89.45,185,197.5,207.5,207.5,130,135,-140,135,197.5,207.5,220,220,562.5,,
6,Ian Conrad,M,SBD,MR-V,93,Raw,2001,,VA,92,180,195,-200,195,115,120,-125,120,210,227.5,235,235,550,,
7,Kyle Rollins,M,SBD,MR-V,93,Raw,2002,,MA,90.55,182.5,190,195,195,105,-110,-110,105,227.5,245,-265,245,545,,
8,Steven Agora,M,SBD,MR-V,93,Raw,2000,Saint John’s High School,MA,90.9,160,170,177.5,177.5,122.5,127.5,132.5,132.5,200,215,-227.5,215,525,,
9,Kyle Aaron Papas,M,SBD,MR-V,93,Raw,2001,,CA,88,200,207.5,-212.5,207.5,92.5,-100,-100,92.5,200,-207.5,,200,500,,
1,Kayleb Bastien,M,SBD,MR-V,105,Raw,2002,,MI,103.55,222.5,-242.5,242.5,242.5,130,142.5,147.5,147.5,215,237.5,255,255,645,,
2,Jordan Holley #1,M,SBD,MR-V,105,Raw,2002,,GA,97.4,232.5,240,242.5,242.5,110,117.5,125,125,250,262.5,272.5,272.5,640,,
3,Reid Koeppel,M,SBD,MR-V,105,Raw,2002,Neenah Powerlifting,WI,101.4,200,215,222.5,222.5,117.5,127.5,130,130,215,232.5,250,250,602.5,,
4,Aaron Gotham,M,SBD,MR-V,105,Raw,2001,,WI,102.35,212.5,220,227.5,227.5,112.5,117.5,122.5,122.5,215,227.5,-242.5,227.5,577.5,,
5,Colton Gruse,M,SBD,MR-V,105,Raw,2000,Winneconne,WI,95,-205,210,-220,210,125,137.5,-142.5,137.5,210,215,227.5,227.5,575,,
6,Ricky Kryeski,M,SBD,MR-V,105,Raw,2000,,PA,93.3,177.5,185,187.5,187.5,142.5,147.5,-150,147.5,220,232.5,235,235,570,,
7,Todd Hall,M,SBD,MR-V,105,Raw,2001,,WI,104.85,185,200,217.5,217.5,105,112.5,115,115,217.5,235,-245,235,567.5,,
8,Joshua Schwartz #1,M,SBD,MR-V,105,Raw,2001,Saint John’s High School,MA,101.6,170,175,180,180,125,-130,-130,125,215,-222.5,230,230,535,,
9,Jacob Jochum,M,SBD,MR-V,105,Raw,2002,,LA,101.6,180,190,192.5,192.5,107.5,112.5,-120,112.5,205,222.5,227.5,227.5,532.5,,
10,Daniel Li,M,SBD,MR-V,105,Raw,2001,Mauston Powerlifting,WI,105,-172.5,172.5,192.5,192.5,97.5,102.5,-110,102.5,-197.5,197.5,-205,197.5,492.5,,
DQ,Sean Lemkuil,M,SBD,MR-V,105,Raw,2000,,WI,97.2,-200,-205,-205,,110,112.5,115,115,205,210,215,215,,,
DQ,Harley Huang,M,SBD,MR-V,105,Raw,2001,,LA,99.65,207.5,217.5,222.5,222.5,125,137.5,-142.5,137.5,-220,-220,-220,,,,
1,Carter Welch,M,SBD,MR-V,120,Raw,2000,,WI,119.15,255,267.5,275,275,147.5,160,167.5,167.5,257.5,272.5,-282.5,272.5,715,,
2,Reese Worden,M,SBD,MR-V,120,Raw,2001,,MI,114,230,252.5,265,265,127.5,137.5,142.5,142.5,232.5,255,265,265,672.5,,
3,Matthew Thibodaux,M,SBD,MR-V,120,Raw,2001,St. Mary’s Catholic,LA,109.75,225,235,247.5,247.5,120,127.5,135,135,245,260,272.5,272.5,655,,
4,Michael Bidwell,M,SBD,MR-V,120,Raw,2001,Winneconne,WI,115.4,227.5,232.5,-235,232.5,120,125,127.5,127.5,272.5,295,-307.5,295,655,,
5,Brandon Thurlby,M,SBD,MR-V,120,Raw,2000,,MI,111.6,200,212.5,215,215,127.5,137.5,-140,137.5,200,215,225,225,577.5,,
6,Austin Williams,M,SBD,MR-V,120,Raw,2000,,LA,110.45,-202.5,202.5,-207.5,202.5,142.5,147.5,-160,147.5,205,-220,-230,205,555,,
7,Cole Johnson,M,SBD,MR-V,120,Raw,2001,,WI,111.25,157.5,167.5,187.5,187.5,102.5,107.5,110,110,205,225,-230,225,522.5,,
1,Logan Cleary,M,SBD,MR-V,120+,Raw,2002,,WI,167.1,290,-305,305,305,177.5,192.5,-200,192.5,270,287.5,300,300,797.5,,
2,Mason Amato,M,SBD,MR-V,120+,Raw,2001,,SD,179.25,242.5,255,262.5,262.5,157.5,-165,-165,157.5,-287.5,290,-320,290,710,,
3,Joseph Anaglia,M,SBD,MR-V,120+,Raw,2001,,TX,138.5,250,270,280,280,130,145,150,150,220,235,-237.5,235,665,,
4,Luke Mellon,M,SBD,MR-V,120+,Raw,2000,,AZ,158.55,245,265,275,275,105,117.5,122.5,122.5,215,240,250,250,647.5,,
5,Brian Feske,M,SBD,MR-V,120+,Raw,2000,,LA,133.2,192.5,-200,-200,192.5,140,145,155,155,227.5,237.5,-250,237.5,585,,
6,Trevor Pye,M,SBD,MR-V,120+,Raw,2001,Waterford Union High School,WI,126.1,225,-230,-230,225,105,107.5,-110,107.5,200,,,200,532.5,,
7,Luke Seljeseth,M,SBD,MR-V,120+,Raw,2001,,MN,154.4,165,195,-200,195,100,-110,-112.5,100,215,-232.5,-232.5,215,510,,
