Place,Name,BirthDate,Sex,State,Division,Equipment,BodyweightKg,WeightClassKg,Squat1Kg,Squat2Kg,Squat3Kg,Best3SquatKg,Bench1Kg,Bench2Kg,Bench3Kg,Best3BenchKg,Deadlift1Kg,Deadlift2Kg,Deadlift3Kg,Best3DeadliftKg,TotalKg,Event
1,Emily Rousseau,,F,ON,Youth 2,Raw,50.58,52,50,55,60,60,22.5,27.5,-32.5,27.5,55,60,65,65,152.5,SBD
1,Makaela Leeder,,F,ON,Sub-Juniors,Raw,61.69,63,85,87.5,-92.5,87.5,60,62.5,-65,62.5,105,115,120,120,270,SBD
1,Abigail Taylor-Peckover,,F,ON,Sub-Juniors,Raw,73.28,76,115,-120,125,125,82.5,87.5,92.5,92.5,-142.5,150,157.5,157.5,375,SBD
2,Annabelle Janisch,,F,ON,Sub-Juniors,Raw,73.15,76,102.5,110,115,115,50,55,57.5,57.5,102.5,112.5,125,125,297.5,SBD
1,Nyla Osfolk,,F,ON,Sub-Juniors,Raw,83.3,84,90,95,100,100,45,50,52.5,52.5,102.5,112.5,117.5,117.5,270,SBD
1,Joy Edralin,,F,ON,Juniors,Raw,50.88,52,112.5,117.5,125,125,55,60,-65,60,142.5,150,157.5,157.5,342.5,SBD
2,Lily Markovski,,F,ON,Juniors,Raw,50.04,52,97.5,102.5,105,105,47.5,50,52.5,52.5,135,142.5,147.5,147.5,305,SBD
3,Sandra Bedawed,,F,ON,Juniors,Raw,48.3,52,85,90,95,95,45,-50,50,50,107.5,115,120,120,265,SBD
4,Emma Kairys,,F,ON,Juniors,Raw,50.85,52,75,85,90,90,47.5,55,57.5,57.5,100,110,-120,110,257.5,SBD
1,Kellie Chong,,F,ON,Juniors,Raw,56.91,57,137.5,144,150.5,150.5,75,80,82.5,82.5,173.5,-183.5,183.5,183.5,416.5,SBD
2,Andrea Vandyk,,F,ON,Juniors,Raw,56.05,57,-127.5,132.5,137.5,137.5,57.5,60,-62.5,60,135,142.5,147.5,147.5,345,SBD
3,Mei Lin Yu,,F,ON,Juniors,Raw,53.33,57,102.5,110,115,115,57.5,62.5,65,65,125,132.5,140,140,320,SBD
4,Nicole Cantelon,,F,ON,Juniors,Raw,55.48,57,92.5,100,105,105,47.5,-52.5,-52.5,47.5,125,-135,140,140,292.5,SBD
1,Delaney Lee,,F,ON,Juniors,Raw,61.4,63,110,112.5,125,125,52.5,57.5,62.5,62.5,137.5,150,160,160,347.5,SBD
2,Jadyn Stashick,,F,ON,Juniors,Raw,60.98,63,75,100,120,120,55,60,-65,60,75,115,142.5,142.5,322.5,SBD
3,Rachel McLaughlin,,F,ON,Juniors,Raw,61.44,63,112.5,120,-125,120,55,62.5,-65,62.5,130,137.5,140,140,322.5,SBD
1,Braelee Gordon,,F,ON,Juniors,Raw,66.9,69,135,140,-142.5,140,62.5,67.5,72.5,72.5,152.5,162.5,-167.5,162.5,375,SBD
2,Anesa Robert,,F,ON,Juniors,Raw,66.51,69,-125,-125,130,130,62.5,67.5,-70,67.5,140,142.5,145,145,342.5,SBD
3,Abby Wiebe,,F,ON,Juniors,Raw,65.18,69,97.5,105,110,110,82.5,-87.5,87.5,87.5,130,135,140,140,337.5,SBD
4,Danielle Tourikian,,F,ON,Juniors,Raw,67.35,69,102.5,110,115,115,-72.5,72.5,77.5,77.5,115,122.5,-127.5,122.5,315,SBD
5,Chelsea Nguyen,,F,ON,Juniors,Raw,67.43,69,87.5,95,100,100,62.5,70,-75,70,120,140,-142.5,140,310,SBD
6,Erica Mossseau,,F,ON,Juniors,Raw,65.84,69,92.5,-97.5,97.5,97.5,55,57.5,60,60,120,130,137.5,137.5,295,SBD
1,Kassandra Sydor,,F,ON,Juniors,Raw,75.31,76,135,142.5,-150,142.5,65,67.5,-70,67.5,145,155,-160,155,365,SBD
2,Ophelia Chung,,F,ON,Juniors,Raw,73.3,76,117.5,125,132.5,132.5,67.5,72.5,75,75,135,145,152.5,152.5,360,SBD
1,Olivia Onuah,,F,ON,Juniors,Raw,88.7,84+,110,117.5,125,125,60,65,67.5,67.5,190,205,-210,205,397.5,SBD
2,Elina Thelen,,F,ON,Juniors,Raw,92.71,84+,125,-132.5,-132.5,125,82.5,85,87.5,87.5,135,142.5,147.5,147.5,360,SBD
1,Caryn Kwai-Pun,,F,ON,Open,Raw,51.42,52,102.5,107.5,110,110,50,-52.5,-52.5,50,127.5,135,140,140,300,SBD
1,Shanee Cesard,,F,ON,Open,Raw,56.65,57,120,125,132.5,132.5,65,70,72.5,72.5,155,162.5,-165,162.5,367.5,SBD
2,Megan Davis,,F,ON,Open,Raw,57,57,102.5,107.5,110,110,65,-67.5,-67.5,65,125,135,-145,135,310,SBD
1,Nicola Paviglianiti,,F,ON,Open,Raw,60.29,63,162.5,170,173,173,87.5,-90,90,90,165,177.5,187.5,187.5,450.5,SBD
2,Serena DeSantis,,F,ON,Open,Raw,61.97,63,155,162.5,170,170,-77.5,77.5,80,80,165,175,182.5,182.5,432.5,SBD
3,Emma Zilberman-Vegas,,F,ON,Open,Raw,60.37,63,145,152.5,157.5,157.5,80,85,87.5,87.5,165,175,-180,175,420,SBD
4,Yordanos Tessema,,F,ON,Open,Raw,62.41,63,125,130,-135,130,75,80,82.5,82.5,187.5,200,205,205,417.5,SBD
5,Allison Shaver,,F,ON,Open,Raw,61.93,63,132.5,140,142.5,142.5,70,72.5,75,75,162.5,172.5,177.5,177.5,395,SBD
6,Roselle Mary S Lucero,,F,ON,Open,Raw,62.45,63,135,145,-147.5,145,67.5,72.5,75,75,150,160,-165,160,380,SBD
7,Neeki Motobar,,F,ON,Open,Raw,58.81,63,125,132.5,140,140,75,80,-82.5,80,135,-142.5,142.5,142.5,362.5,SBD
8,Claudia Zloteanu,,F,ON,Open,Raw,61.48,63,127.5,132.5,137.5,137.5,70,72.5,-75,72.5,137.5,-145,145,145,355,SBD
9,Elena Popadic,,F,ON,Open,Raw,61.7,63,115,122.5,125,125,60,65,67.5,67.5,135,142.5,147.5,147.5,340,SBD
10,Kristina Pompilii,,F,ON,Open,Raw,62.76,63,112.5,122.5,-130,122.5,60,65,70,70,120,132.5,145,145,337.5,SBD
11,Marie Bartolome,,F,ON,Open,Raw,61,63,117.5,125,-130,125,47.5,52.5,-55,52.5,135,142.5,147.5,147.5,325,SBD
12,Ashley Nearing,,F,ON,Open,Raw,60.94,63,107.5,117.5,122.5,122.5,55,60,-65,60,120,132.5,-140,132.5,315,SBD
13,Cassandra Chin,,F,ON,Open,Raw,61.25,63,102.5,110,115,115,47.5,52.5,57.5,57.5,122.5,130,135,135,307.5,SBD
1,Shannon Mutch,,F,ON,Open,Raw,67.76,69,167.5,175,-183,175,90,94,98,98,172.5,185,-192.5,185,458,SBD
2,Jennifer Theron,,F,ON,Open,Raw,67.61,69,127.5,135,142.5,142.5,70,77.5,82.5,82.5,142.5,155,162.5,162.5,387.5,SBD
3,Michelle Comber-Stott,,F,ON,Open,Raw,68.15,69,120,127.5,132.5,132.5,82.5,87.5,-90,87.5,142.5,152.5,162.5,162.5,382.5,SBD
4,Minette Meronyk,,F,ON,Open,Raw,68.15,69,125,132.5,137.5,137.5,70,75,77.5,77.5,145,155,162.5,162.5,377.5,SBD
5,Jess Park,,F,ON,Open,Raw,68.35,69,125,130,-135,130,-77.5,77.5,82.5,82.5,142.5,150,157.5,157.5,370,SBD
6,Ali Homer,,F,ON,Open,Raw,66.9,69,130,140,-145,140,70,75,-77.5,75,142.5,152.5,-162.5,152.5,367.5,SBD
7,Christina Potito,,F,ON,Open,Raw,67.28,69,132.5,140,-145,140,62.5,-67.5,70,70,142.5,150,-160,150,360,SBD
8,Kristina Arcalas,,F,ON,Open,Raw,67.56,69,125,132.5,137.5,137.5,60,65,-67.5,65,140,150,-157.5,150,352.5,SBD
9,Leah Vandeburgt,,F,ON,Open,Raw,65.76,69,115,122.5,-127.5,122.5,70,72.5,75,75,140,152.5,-155,152.5,350,SBD
10,Sarah Bendo-De Sousa,,F,ON,Open,Raw,67.93,69,107.5,115,117.5,117.5,50,-55,55,55,140,150,157.5,157.5,330,SBD
1,Kristine Adams,,F,ON,Open,Raw,73.7,76,165,172.5,177.5,177.5,95,100,102.5,102.5,180,190,-197.5,190,470,SBD
2,Nicole Bekzadeh,,F,ON,Open,Raw,73.99,76,127.5,135,-137.5,135,77.5,82.5,-85,82.5,150,160,170,170,387.5,SBD
3,Kayla Boisvert,,F,ON,Open,Raw,74.99,76,125,130,135,135,67.5,72.5,75,75,160,172.5,-180,172.5,382.5,SBD
4,Caroline Pellerin,,F,ON,Open,Raw,74.35,76,127.5,135,142.5,142.5,75,80,-82.5,80,135,145,157.5,157.5,380,SBD
5,Isobella D'Iorio,,F,ON,Open,Raw,73.42,76,142.5,150,155,155,65,72.5,75,75,142.5,-150,-150,142.5,372.5,SBD
6,Brianna Kitchener,,F,ON,Open,Raw,73.89,76,-125,127.5,130,130,67.5,72.5,-77.5,72.5,135,137.5,-140,137.5,340,SBD
1,Isabelle Aube-Peterkin,,F,ON,Open,Raw,83.07,84,132.5,140,147.5,147.5,85,90,92.5,92.5,155,165,177.5,177.5,417.5,SBD
2,Alex Gristey,,F,ON,Open,Raw,81.14,84,142.5,150,-155,150,65,70,72.5,72.5,170,180,187.5,187.5,410,SBD
1,April Hutchinson,,F,ON,Open,Raw,103.94,84+,167.5,175,182.5,182.5,80,85,-87.5,85,-210,210,222.5,222.5,490,SBD
2,Paula Norton,,F,ON,Open,Raw,92.61,84+,160,170,180,180,85,92.5,97.5,97.5,175,187.5,-190,187.5,465,SBD
3,Nikki Foster,,F,ON,Open,Raw,112.12,84+,152.5,162.5,167.5,167.5,80,85,87.5,87.5,180,187.5,,187.5,442.5,SBD
4,Ashley Ceresino,,F,ON,Open,Raw,94.8,84+,137.5,145,150,150,67.5,-70,-70,67.5,155,162.5,-170,162.5,380,SBD
5,Nicole Ross,,F,ON,Open,Raw,122.08,84+,140,145,152.5,152.5,92.5,95,97.5,97.5,122.5,130,-135,130,380,SBD
6,Jay Reyes,,F,ON,Open,Raw,86.7,84+,55,90,100,100,-85,85,92.5,92.5,125,145,-172.5,145,337.5,SBD
DQ,Sydney Gubbels,,F,ON,Open,Raw,120.61,84+,165,172.5,180,180,-85,,,,,,,,,SBD
1,Lisa Barkey,,F,ON,Masters 1,Raw,61.79,63,100,105,112.5,112.5,57.5,60,62.5,62.5,130,137.5,142.5,142.5,317.5,SBD
1,Mo Akinsanya,,F,ON,Masters 1,Raw,64.2,69,127.5,135,140,140,62.5,-67.5,72.5,72.5,160,170,176,176,388.5,SBD
1,Sylvia Atkinson,,F,ON,Masters 1,Raw,72.93,76,162.5,172.5,177.5,177.5,70,75,77.5,77.5,177.5,192.5,200,200,455,SBD
2,Tracy Arias,,F,ON,Masters 1,Raw,71.02,76,150,157.5,160,160,60,62.5,-65,62.5,177.5,190,-201,190,412.5,SBD
3,Leslie Stavenow,,F,ON,Masters 1,Raw,73.94,76,140,,,140,87.5,92.5,-96.5,92.5,165,172.5,-175,172.5,405,SBD
1,Lisa Geauvreau,,F,ON,Masters 1,Raw,93.94,84+,145,152.5,-160,152.5,70,75,77.5,77.5,135,145,-150,145,375,SBD
2,Lyuba Minich,,F,ON,Masters 1,Raw,123.21,84+,125,132.5,137.5,137.5,67.5,70,77.5,77.5,142.5,150,157.5,157.5,372.5,SBD
1,Esther Garshore,,F,ON,Masters 2,Raw,55.22,57,102.5,107.5,112.5,112.5,52.5,57.5,-60,57.5,130,137.5,140,140,310,SBD
1,Julie Watkin,,F,ON,Masters 2,Raw,59.15,63,95,100,,100,50,52.5,,52.5,130,,,130,282.5,SBD
2,Sarah Ofield,,F,ON,Masters 2,Raw,62.32,63,82.5,87.5,92.5,92.5,47.5,-52.5,-52.5,47.5,105,112.5,117.5,117.5,257.5,SBD
1,Christine Nguyen,,F,ON,Masters 2,Raw,64.72,69,117.5,122.5,127.5,127.5,47.5,52.5,-55,52.5,130,137.5,142.5,142.5,322.5,SBD
2,Sandra Flowerday-Payne,,F,ON,Masters 2,Raw,68.03,69,90,95,102.5,102.5,62.5,67.5,-72.5,67.5,105,112.5,115,115,285,SBD
1,Tracy Wise,,F,ON,Masters 2,Raw,75.07,76,110,115,120,120,70,75,-80,75,140,150,-155,150,345,SBD
2,Jennifer Evans,,F,ON,Masters 2,Raw,74.62,76,80,-87.5,87.5,87.5,50,55,-60,55,-100,100,107.5,107.5,250,SBD
1,Marija Graham,,F,ON,Masters 2,Raw,81.2,84,137.5,-147.5,-153,137.5,57.5,62.5,-65,62.5,155,165,170,170,370,SBD
1,Wendy Norton,,F,ON,Masters 2,Raw,94.84,84+,105,112.5,-117.5,112.5,55,60,65,65,147.5,155,165,165,342.5,SBD
1,Heidi Schraft,,F,ON,Masters 3,Raw,49.15,52,57.5,62.5,67.5,67.5,47.5,52.5,-55,52.5,82.5,90,97.5,97.5,217.5,SBD
1,Louise Beard,,F,ON,Masters 3,Raw,73.62,76,70,-75,75,75,47.5,52.5,-57.5,52.5,110,120,-127.5,120,247.5,SBD
1,Judy Gravel,,F,ON,Masters 4,Raw,59.92,63,57.5,62.5,67.5,67.5,35,-37.5,-40,35,85,95,97.5,97.5,200,SBD
1,Sam Glover,,M,ON,Youth 2,Raw,49.42,53,35,42.5,47.5,47.5,25,30,-35,30,45,50,55,55,132.5,SBD
1,Rikizo Tamaki,,M,ON,Sub-Juniors,Raw,62.59,66,120,-137.5,137.5,137.5,82.5,87.5,-92.5,87.5,145,170,182.5,182.5,407.5,SBD
1,Jack Mounsey,,M,ON,Sub-Juniors,Raw,70.84,74,172.5,182.5,190,190,95,100,102.5,102.5,212.5,220,230,230,522.5,SBD
2,William Weldrick,,M,ON,Sub-Juniors,Raw,71.87,74,152.5,170,172.5,172.5,110,117.5,-125,117.5,170,180,-187.5,180,470,SBD
3,Keaton Schuler,,M,ON,Sub-Juniors,Raw,71.24,74,150,160,170,170,82.5,87.5,-92.5,87.5,177.5,187.5,-197.5,187.5,445,SBD
1,Camdyn Carney,,M,ON,Sub-Juniors,Raw,82.8,83,182.5,-195,-195,182.5,105,110,112.5,112.5,220,235,-245.5,235,530,SBD
2,Lukas Crocker,,M,ON,Sub-Juniors,Raw,81.26,83,145,162.5,-170,162.5,82.5,95,97.5,97.5,227.5,235,247.5,247.5,507.5,SBD
3,Andrew Dedato,,M,ON,Sub-Juniors,Raw,81.81,83,130,140,147.5,147.5,75,82.5,-90,82.5,167.5,-180,180,180,410,SBD
1,Rocky Wang,,M,ON,Sub-Juniors,Raw,103.19,105,217.5,230,-240,230,142.5,150,-152.5,150,270,285,-301,285,665,SBD
2,Esmer Lemes,,M,ON,Sub-Juniors,Raw,103.56,105,195,210,220,220,135,145,155,155,240,-255,-255,240,615,SBD
1,Jake Edralin,,M,ON,Juniors,Raw,57.66,59,150,160,-165,160,110,117.5,-122.5,117.5,195,210,-217.5,210,487.5,SBD
2,Eric Gomes,,M,ON,Juniors,Raw,58.75,59,130,142.5,150,150,92.5,-102.5,105,105,160,175,-180,175,430,SBD
3,John Valeri,,M,ON,Juniors,Raw,57.22,59,135,-145,-155,135,87.5,-97.5,-97.5,87.5,172.5,182.5,-197.5,182.5,405,SBD
1,Jaycel Esteron,,M,ON,Juniors,Raw,65.31,66,200,210,-215,210,125,132.5,135,135,220,240,-242.5,240,585,SBD
2,Faifoo Lee,,M,ON,Juniors,Raw,65.38,66,165,172.5,177.5,177.5,97.5,102.5,107.5,107.5,190,200,205,205,490,SBD
3,Jacky Huang,,M,ON,Juniors,Raw,64.3,66,-175,175,-185,175,92.5,100,-110,100,182.5,192.5,200,200,475,SBD
1,Michael Sanchez #2,,M,ON,Juniors,Raw,72.84,74,190,200,205,205,155,160,165,165,255,265,275,275,645,SBD
2,Christopher Gonzales,,M,ON,Juniors,Raw,72.51,74,185,195,200,200,120,130,135,135,247.5,262.5,272.5,272.5,607.5,SBD
3,Frederick Callahan,,M,ON,Juniors,Raw,73.84,74,187.5,197.5,205,205,120,125,-130,125,212.5,225,-232.5,225,555,SBD
4,Ryan Mood,,M,ON,Juniors,Raw,72.75,74,185,192.5,200,200,107.5,112.5,117.5,117.5,225,230,-237.5,230,547.5,SBD
5,Angelo Martires,,M,ON,Juniors,Raw,72.65,74,155,167.5,-172.5,167.5,112.5,117.5,-120,117.5,195,-207.5,207.5,207.5,492.5,SBD
6,Jason Apostol,,M,ON,Juniors,Raw,73.55,74,155,165,172.5,172.5,92.5,102.5,-112.5,102.5,187.5,200,212.5,212.5,487.5,SBD
7,Parmveer Pabla,,M,ON,Juniors,Raw,73.97,74,162.5,167.5,-172.5,167.5,100,105,110,110,192.5,197.5,-200,197.5,475,SBD
8,Jeonghyun Lee,,M,ON,Juniors,Raw,71.81,74,155,165,177.5,177.5,95,102.5,-107.5,102.5,162.5,172.5,180,180,460,SBD
1,Adam Jansson,,M,ON,Juniors,Raw,82.49,83,260,272.5,282.5,282.5,182.5,190.5,195.5,195.5,280,292.5,302.5,302.5,780.5,SBD
2,Brock Allen #1,,M,ON,Juniors,Raw,81.65,83,227.5,235,240,240,160,165,170,170,245,257.5,265,265,675,SBD
3,Derek Demmans,,M,ON,Juniors,Raw,81.71,83,220,230,237.5,237.5,137.5,142.5,-147.5,142.5,225,235,255,255,635,SBD
4,Benedict Alexander,,M,ON,Juniors,Raw,80.9,83,185,192.5,200,200,145,155,160,160,252.5,262.5,272.5,272.5,632.5,SBD
5,Sebastian Camargos,,M,ON,Juniors,Raw,81.69,83,207.5,217.5,225,225,125,130,132.5,132.5,242.5,257.5,265,265,622.5,SBD
6,Ian Tibbs,,M,ON,Juniors,Raw,81.46,83,205,210,215,215,142.5,-150,-150,142.5,242.5,-255,262.5,262.5,620,SBD
7,Anthony Nemi,,M,ON,Juniors,Raw,80.49,83,200,207.5,212.5,212.5,130,135,140,140,240,255,-265,255,607.5,SBD
8,Quinn Baxter,,M,ON,Juniors,Raw,75.77,83,182.5,200,227.5,227.5,100,120,130,130,200,220,242.5,242.5,600,SBD
9,Benjamin Persaud,,M,ON,Juniors,Raw,80.88,83,190,200,202.5,202.5,132.5,137.5,142.5,142.5,242.5,250,-257.5,250,595,SBD
10,Balazs Schaffer,,M,ON,Juniors,Raw,77.31,83,200,210,-215,210,145,150,-152.5,150,215,222.5,230,230,590,SBD
11,Adrian Resendes,,M,ON,Juniors,Raw,81.04,83,187.5,202.5,215,215,115,122.5,-132.5,122.5,225,237.5,250,250,587.5,SBD
12,Peter McGuey,,M,ON,Juniors,Raw,81.98,83,187.5,195,197.5,197.5,120,125,130,130,227.5,240,245,245,572.5,SBD
13,Robert Wright,,M,ON,Juniors,Raw,81.92,83,197.5,210,-220,210,120,130,-135,130,222.5,-237.5,-237.5,222.5,562.5,SBD
14,Bassil Issa,,M,ON,Juniors,Raw,82.91,83,190,200,210,210,130,132.5,137.5,137.5,200,210,-225,210,557.5,SBD
15,Jamie Sparkes,,M,ON,Juniors,Raw,79.51,83,180,190,-202.5,190,110,115,-120,115,235,242.5,250,250,555,SBD
16,Rene Levesque,,M,ON,Juniors,Raw,81.64,83,190,-200,200,200,120,130,137.5,137.5,185,195,205,205,542.5,SBD
17,Andrew Shatil,,M,ON,Juniors,Raw,82.61,83,160,170,-175,170,130,137.5,-140,137.5,207.5,217.5,220,220,527.5,SBD
1,Johnathan Asselstine,,M,ON,Juniors,Raw,91.75,93,245,257.5,267.5,267.5,155,162.5,167.5,167.5,250,-270,287.5,287.5,722.5,SBD
2,Evan Seymour,,M,ON,Juniors,Raw,91.21,93,245,260,270,270,157.5,170,-178,170,240,257.5,275,275,715,SBD
3,Anthony DeSousa,,M,ON,Juniors,Raw,89.68,93,240,-255,255,255,160,165,-170,165,270,292.5,-302.5,292.5,712.5,SBD
4,Brandon Huynh,,M,ON,Juniors,Raw,91.39,93,227.5,235,-240,235,142.5,150,155,155,275,282.5,287.5,287.5,677.5,SBD
5,Emmanuel Weber,,M,ON,Juniors,Raw,92.31,93,230,242.5,250,250,130,-132.5,-147.5,130,252.5,262.5,272.5,272.5,652.5,SBD
6,Cole Clute,,M,ON,Juniors,Raw,92.26,93,220,230,235,235,137.5,142.5,-147.5,142.5,230,250,-265,250,627.5,SBD
7,Pouria Zahraei,,M,ON,Juniors,Raw,92.49,93,217.5,222.5,-232.5,222.5,120,130,-135,130,262.5,275,-280,275,627.5,SBD
8,Christian Santos,,M,ON,Juniors,Raw,91.52,93,205,220,230,230,140,-147.5,147.5,147.5,225,240,247.5,247.5,625,SBD
9,Lim Estillore,,M,ON,Juniors,Raw,91.7,93,195,-207.5,212.5,212.5,150,157.5,-162.5,157.5,235,247.5,-255,247.5,617.5,SBD
10,Mark Yadeo,,M,ON,Juniors,Raw,91.3,93,210,220,227.5,227.5,130,135,137.5,137.5,240,-255,-255,240,605,SBD
11,Jackson Clark,,M,ON,Juniors,Raw,89.8,93,210,222.5,-230,222.5,130,137.5,-142.5,137.5,217.5,232.5,240,240,600,SBD
12,Nate Taylor,,M,ON,Juniors,Raw,91.54,93,200,207.5,212.5,212.5,102.5,110,115,115,260,272.5,-280,272.5,600,SBD
13,Jonathan Choong,,M,ON,Juniors,Raw,91,93,192.5,202.5,210,210,127.5,135,142.5,142.5,217.5,230,237.5,237.5,590,SBD
14,Vince Vivona,,M,ON,Juniors,Raw,92.58,93,-195,-207.5,207.5,207.5,125,130,135,135,235,-247.5,-247.5,235,577.5,SBD
15,Jake Mason,,M,ON,Juniors,Raw,85.41,93,185,192.5,200,200,115,120,125,125,207.5,227.5,245,245,570,SBD
16,Tyson Manak,,M,ON,Juniors,Raw,89.09,93,190,197.5,200,200,132.5,137.5,142.5,142.5,197.5,207.5,220,220,562.5,SBD
1,Niko Nikolic,,M,ON,Juniors,Raw,102.61,105,275,295,305,305,172.5,185,190,190,277.5,295,-305,295,790,SBD
2,Mohammed Darrat,,M,ON,Juniors,Raw,102.54,105,230,250,265,265,150,155,160,160,240,257.5,275,275,700,SBD
3,Daniel Fraulin,,M,ON,Juniors,Raw,103.47,105,230,240,250,250,157.5,165,170,170,245,265,-282.5,265,685,SBD
4,Maxwell Snider,,M,ON,Juniors,Raw,101.74,105,215,227.5,-240,227.5,-140,150,157.5,157.5,230,240,250,250,635,SBD
5,Robert Panela,,M,ON,Juniors,Raw,102.85,105,217.5,227.5,-232.5,227.5,102.5,112.5,-117.5,112.5,240,260,-272.5,260,600,SBD
DQ,Andrew Drysdale,,M,ON,Juniors,Raw,103.52,105,-270,-285,-285,,-127.5,,,,,,,,,SBD
1,Ethan Akerman,,M,ON,Juniors,Raw,117.91,120,255,267.5,275,275,150,155,160,160,255,265,277.5,277.5,712.5,SBD
2,Anikin Kirkbride,,M,ON,Juniors,Raw,119.27,120,255,267.5,-280,267.5,125,135,-140,135,225,237.5,250,250,652.5,SBD
3,Christoph Fusch,,M,ON,Juniors,Raw,109.15,120,225,-237.5,240,240,122.5,-130,130,130,247.5,265,-282.5,265,635,SBD
4,Caleb Culhane,,M,ON,Juniors,Raw,118.16,120,-227.5,227.5,235,235,125,135,-140,135,227.5,247.5,262.5,262.5,632.5,SBD
1,Jacob Bisch,,M,ON,Juniors,Raw,149.38,120+,270,295,-320,295,195,-205,-210,195,237.5,255,-265,255,745,SBD
2,Iain Bett,,M,ON,Juniors,Raw,166.2,120+,225,240,255,255,137.5,142.5,145,145,235,-250,-252.5,235,635,SBD
3,Oluwadamilola Shokunbi,,M,ON,Juniors,Raw,138.19,120+,205,-220,230,230,117.5,125,132.5,132.5,240,257.5,-272.5,257.5,620,SBD
1,Jake Edralin,,M,ON,Juniors,Raw,57.66,59,150,160,-165,160,110,117.5,-122.5,117.5,195,210,-217.5,210,487.5,SBD
2,Eric Gomes,,M,ON,Juniors,Raw,58.75,59,130,142.5,150,150,92.5,-102.5,105,105,160,175,-180,175,430,SBD
3,John Valeri,,M,ON,Juniors,Raw,57.22,59,135,-145,-155,135,87.5,-97.5,-97.5,87.5,172.5,182.5,-197.5,182.5,405,SBD
DQ,Kevin Prommawonsee,,M,ON,Open,Raw,57.88,59,170,-185,-185,170,100,-110,-110,100,-195,-205,-205,,,SBD
1,Kai Cong Yu,,M,ON,Open,Raw,66,66,175,182.5,-187.5,182.5,105,110,-115,110,200,212.5,217.5,217.5,510,SBD
2,Colin Pickering,,M,ON,Open,Raw,65.63,66,180,190,-195,190,117.5,122.5,125,125,185,192.5,-197.5,192.5,507.5,SBD
3,Andrew Villafuerte,,M,ON,Open,Raw,64.31,66,145,155,162.5,162.5,100,107.5,112.5,112.5,200,215,232.5,232.5,507.5,SBD
4,Derick Luu,,M,ON,Open,Raw,65.91,66,75,85,100,100,142.5,147.5,152.5,152.5,75,110,125,125,377.5,SBD
1,Olanrewaju Adeoye,,M,ON,Open,Raw,73.89,74,265,274,281,281,130,-135,137.5,137.5,280,292.5,-300,292.5,711,SBD
2,Kian Terrado,,M,ON,Open,Raw,73.3,74,250,260,-267.5,260,155,162.5,-165,162.5,265,280,-285,280,702.5,SBD
3,Mark Tobias,,M,ON,Open,Raw,73.93,74,257.5,265,270,270,145,150,-155,150,265,-280,-285,265,685,SBD
4,Dave Govico,,M,ON,Open,Raw,73.81,74,-215,225,-235,225,157.5,165,-167.5,165,257.5,272.5,-285,272.5,662.5,SBD
5,Frankie Pu,,M,ON,Open,Raw,73.77,74,227.5,-237.5,-237.5,227.5,142.5,147.5,-150,147.5,265,275,-285,275,650,SBD
6,Willem Yu,,M,ON,Open,Raw,72.19,74,195,210,217.5,217.5,105,110,112.5,112.5,230,240,250,250,580,SBD
7,Luke Hatfield,,M,ON,Open,Raw,73.51,74,195,207.5,212.5,212.5,107.5,115,117.5,117.5,230,240,250,250,580,SBD
8,Jose Roginal Atienza,,M,ON,Open,Raw,73.72,74,195,202.5,-205,202.5,107.5,112.5,115,115,220,230,232.5,232.5,550,SBD
1,Kyle Graham,,M,ON,Open,Raw,82.79,83,277.5,287.5,295.5,295.5,145,150,152.5,152.5,295,312.5,326.5,326.5,774.5,SBD
2,Ian Buck,,M,ON,Open,Raw,80.7,83,240,255,-265,255,140,145,-147.5,145,280,295,302.5,302.5,702.5,SBD
3,Jason Chow,,M,ON,Open,Raw,82.65,83,-215,215,-227.5,215,145,155,160,160,280,300,-310,300,675,SBD
4,Jesse Barnes,,M,ON,Open,Raw,82.93,83,215,230,240,240,147.5,155,162.5,162.5,255,272.5,-285,272.5,675,SBD
5,Jonathan Veysey,,M,ON,Open,Raw,81.24,83,215,230,240,240,137.5,150,155,155,242.5,262.5,277.5,277.5,672.5,SBD
6,Sam Candy,,M,ON,Open,Raw,82.76,83,230,240,-250,240,145,-152.5,152.5,152.5,270,-285,-285,270,662.5,SBD
7,Andrew Kim,,M,ON,Open,Raw,82.67,83,225,237.5,247.5,247.5,142.5,152.5,155,155,235,250,-262.5,250,652.5,SBD
8,Zachary Lee #2,,M,ON,Open,Raw,82.54,83,-235,235,-242.5,235,140,145,150,150,-235,235,250,250,635,SBD
9,David Man,,M,ON,Open,Raw,79.91,83,210,225,232.5,232.5,125,132.5,140,140,230,245,-252.5,245,617.5,SBD
10,Brandon Bunardi,,M,ON,Open,Raw,80.79,83,180,190,200,200,122.5,130,132.5,132.5,252.5,267.5,277.5,277.5,610,SBD
11,Khalil Cazranee,,M,ON,Open,Raw,82.38,83,197.5,217.5,227.5,227.5,150,-167.5,-167.5,150,217.5,232.5,-247.5,232.5,610,SBD
12,Thamjeeth Abdul Gaffoor,,M,ON,Open,Raw,80.92,83,212.5,217.5,220,220,130,135,-140,135,242.5,245,-252.5,245,600,SBD
13,David Hammond,,M,ON,Open,Raw,81.98,83,190,200,210,210,140,147.5,-152.5,147.5,215,230,235,235,592.5,SBD
14,Bryant McNamara,,M,ON,Open,Raw,81.8,83,190,205,-220,205,130,140,-142.5,140,220,235,-245,235,580,SBD
15,Luke Bermingham,,M,ON,Open,Raw,81.93,83,165,167.5,175,175,115,-117.5,-117.5,115,175,-250,270,270,560,SBD
1,Ben Langley,,M,ON,Open,Raw,85.61,93,265,272.5,285,285,162.5,172.5,180,180,275,285,-295,285,750,SBD
2,Taylor Shadgett,,M,ON,Open,Raw,92.91,93,260,270,280,280,135,142.5,150,150,280,300,-322.5,300,730,SBD
3,Alejandro Feo,,M,ON,Open,Raw,90.67,93,237.5,247.5,260,260,142.5,152.5,157.5,157.5,275,290,300,300,717.5,SBD
4,Andrew Brown #2,,M,ON,Open,Raw,89.67,93,230,240,247.5,247.5,135,142.5,147.5,147.5,282.5,302.5,315,315,710,SBD
5,Kevin Chau,,M,ON,Open,Raw,91.98,93,255,267.5,-272.5,267.5,140,150,157.5,157.5,260,275,-287.5,275,700,SBD
6,Nicholas Farralas,,M,ON,Open,Raw,91.29,93,235,250,257.5,257.5,125,132.5,137.5,137.5,270,282.5,-290,282.5,677.5,SBD
7,Joseph Scrivo,,M,ON,Open,Raw,91.27,93,225,237.5,-250,237.5,140,147.5,-155,147.5,265,280,-282.5,280,665,SBD
8,Seongjun Kim,,M,ON,Open,Raw,92.09,93,220,232.5,237.5,237.5,140,147.5,-152.5,147.5,262.5,280,-285,280,665,SBD
9,Zack Morrow,,M,ON,Open,Raw,91.95,93,230,237.5,-242.5,237.5,140,147.5,-152.5,147.5,250,260,-265,260,645,SBD
10,Derek Summers,,M,ON,Open,Raw,91.13,93,210,222.5,-230,222.5,137.5,142.5,147.5,147.5,230,242.5,252.5,252.5,622.5,SBD
11,Curtis Vanderwoerd,,M,ON,Open,Raw,92.71,93,205,217.5,-225,217.5,135,145,-150,145,245,260,-270,260,622.5,SBD
12,Frank Laaper,,M,ON,Open,Raw,92.08,93,210,220,225,225,117.5,120,-122.5,120,250,262.5,270,270,615,SBD
1,Walter Cariazo,,M,ON,Open,Raw,102.49,105,272.5,285,-292.5,285,185,195,202.5,202.5,320,345,-363,345,832.5,SBD
2,Graeme Laprade,,M,ON,Open,Raw,104.63,105,260,280,285,285,175,187.5,192.5,192.5,285,305,310,310,787.5,SBD
3,Ian Seguin,,M,ON,Open,Raw,100.17,105,272.5,292.5,-300,292.5,160,170,175,175,290,310,317.5,317.5,785,SBD
4,Josh Smith #13,,M,ON,Open,Raw,95.61,105,265,277.5,287.5,287.5,157.5,165,170,170,285,300,320,320,777.5,SBD
5,Feras Wehbi,,M,ON,Open,Raw,104.11,105,247.5,-260,265,265,165,172.5,180,180,265,282.5,290,290,735,SBD
6,John Chittle,,M,ON,Open,Raw,97.06,105,225,227.5,245,245,147.5,155,-162.5,155,285,300,-302.5,300,700,SBD
7,Evan Taylor,,M,ON,Open,Raw,102.48,105,255,270,280,280,155,165,-175,165,100,,,100,545,SBD
1,Erik Willis,,M,ON,Open,Raw,119.04,120,265,-285,285,285,220,235.5,-238,235.5,327.5,350,357.5,357.5,878,SBD
2,Kerry Dennison,,M,ON,Open,Raw,116.61,120,275,290,297.5,297.5,190,200,207.5,207.5,327.5,342.5,363.5,363.5,868.5,SBD
3,Michael Ricchio,,M,ON,Open,Raw,117.86,120,260,272.5,275,275,-207.5,207.5,-215,207.5,275,290,300,300,782.5,SBD
4,Richard Davidson,,M,ON,Open,Raw,117.83,120,260,272.5,290,290,165,175,-180,175,270,292.5,312.5,312.5,777.5,SBD
5,Kam Hughes,,M,ON,Open,Raw,109.57,120,270,280,-285,280,177.5,-182.5,-182.5,177.5,285,300,-325,300,757.5,SBD
6,Kyle Chrishop,,M,ON,Open,Raw,111.09,120,257.5,272.5,285,285,-142.5,150,160,160,295,-310,-320,295,740,SBD
7,Christopher Juman,,M,ON,Open,Raw,112.07,120,260,275,-285,275,150,157.5,160,160,265,285,292.5,292.5,727.5,SBD
8,Silvio Altomare,,M,ON,Open,Raw,116.71,120,250,260,-265,260,160,170,-175,170,282.5,285,-305,285,715,SBD
9,Pavel Kanfer,,M,ON,Open,Raw,118.12,120,265,275,-280,275,165,170,-175,170,252.5,265,-275,265,710,SBD
1,Trevor Greenwood,,M,ON,Open,Raw,148.83,120+,290,,,290,-195,200,-205,200,290,300,-320,300,790,SBD
2,Jesse Macmillan,,M,ON,Open,Raw,132.17,120+,240,-260,280,280,145,155,162.5,162.5,290,305,317.5,317.5,760,SBD
3,Brendan Hepburn,,M,ON,Open,Raw,125.09,120+,255,270,272.5,272.5,175,185,-190,185,265,280,-300,280,737.5,SBD
4,Jake Mitchell #1,,M,ON,Open,Raw,194.85,120+,232.5,247.5,-257.5,247.5,175,-187.5,-187.5,175,225,235,-242.5,235,657.5,SBD
5,Paul Barth,,M,ON,Open,Raw,139.36,120+,125,-225,-225,125,125,-145,-150,125,125,-225,-242.5,125,375,SBD
DQ,Kevin Prommawonsee,,M,ON,Open,Raw,57.88,59,170,-185,-185,170,100,-110,-110,100,-195,-205,-205,,,SBD
1,Chris Aviado,,M,ON,Masters 1,Raw,64.55,66,165,175,185,185,137.5,145,155,155,200,213,220,220,560,SBD
1,Peter Wylie,,M,ON,Masters 1,Raw,73.59,74,187.5,197.5,207.5,207.5,120,125,-130,125,242.5,252.5,262.5,262.5,595,SBD
2,Kristian Bonn,,M,ON,Masters 1,Raw,72.38,74,167.5,170,175,175,-125,125,-127.5,125,192.5,197.5,-205,197.5,497.5,SBD
1,Anson Liu,,M,ON,Masters 1,Raw,82.94,83,185,195,202.5,202.5,120,125,130,130,212.5,222.5,-230,222.5,555,SBD
2,Michael Baldassi,,M,ON,Masters 1,Raw,80.79,83,170,-185,185,185,97.5,102.5,-107.5,102.5,190,205,215,215,502.5,SBD
1,Travis Graham,,M,ON,Masters 1,Raw,92.08,93,172.5,187.5,202.5,202.5,110,120,127.5,127.5,220,240,255,255,585,SBD
DQ,Mike Dickinson,,M,ON,Masters 1,Raw,92.46,93,250,-265,,250,,,,,,,,,,SBD
1,Dale Willicombe,,M,ON,Masters 1,Raw,116.32,120,245,255,265,265,165,172.5,-177.5,172.5,235,250,262.5,262.5,700,SBD
1,Joel McCullough,,M,ON,Masters 2,Raw,73.1,74,170,180,190,190,110,115,-120,115,195,205,220.5,220.5,525.5,SBD
1,Sandro D'Angelo,,M,ON,Masters 2,Raw,81.46,83,180,187.5,192.5,192.5,110,115,117.5,117.5,227.5,237.5,242.5,242.5,552.5,SBD
2,Jim Ohlman,,M,ON,Masters 2,Raw,82.79,83,162.5,172.5,177.5,177.5,87.5,92.5,95,95,205,212.5,222.5,222.5,495,SBD
1,Mark Pope,,M,ON,Masters 2,Raw,103.99,105,215,225,-235,225,145,150,155,155,235,245,255,255,635,SBD
2,David Pigozzo,,M,ON,Masters 2,Raw,101.35,105,172.5,-175,-175,172.5,130,137.5,-142.5,137.5,190,202.5,210,210,520,SBD
1,Kevin Grant-Hose,,M,ON,Masters 3,Raw,98.67,105,175,185,190,190,100,110,117.5,117.5,175,185,195,195,502.5,SBD
1,Michael Förster,,M,ON,Masters 3,Raw,116.3,120,205,217.5,227.5,227.5,-117.5,-117.5,117.5,117.5,195,212.5,227.5,227.5,572.5,SBD
1,Marie Wagner,,F,ON,Juniors,Single-ply,82.97,84,175,180,185.5,185.5,95,100,105,105,182.5,190,193,193,483.5,SBD
1,Simone Lai,,F,ON,Open,Single-ply,50.52,52,145,155,165,165,70,75,-80,75,150,160,-167.5,160,400,SBD
1,Lucas Franchuk,,M,ON,Open,Single-ply,92.31,93,250,265,267.5,267.5,165,175,180,180,250,260,270,270,717.5,SBD
1,Brad Fulton,,M,ON,Open,Single-ply,111.2,120,307.5,-320,325,325,-195,195,-207.5,195,300,307.5,-315,307.5,827.5,SBD
1,Sean Vandenburg,,M,ON,Masters 1,Single-ply,64.96,66,180,185,-187.5,185,75,-77.5,-77.5,75,60,,,60,320,SBD
1,Barry Antoniow,,M,ON,Masters 2,Single-ply,93.38,105,-185,195,220,220,228.5,-235.5,-235.5,228.5,190,210,-212.5,210,658.5,SBD
1,Emily Rousseau,,F,ON,Youth 2,Raw,50.44,52,,,,,22.5,27.5,30,30,,,,,30,B
1,Kassidy Lanteigne,,F,ON,Juniors,Raw,73.12,76,,,,,50,55,57.5,57.5,,,,,57.5,B
1,Joanna Rieber,,F,ON,Open,Raw,53.45,57,,,,,75,-77.5,80,80,,,,,80,B
1,Michelle Comber-Stott,,F,ON,Open,Raw,68.34,69,,,,,82.5,87.5,-90,87.5,,,,,87.5,B
1,Nicole Bekzadeh,,F,ON,Open,Raw,73.79,76,,,,,75,77.5,82.5,82.5,,,,,82.5,B
1,Frances Manias,,F,ON,Masters 1,Raw,61.94,63,,,,,60,65,67.5,67.5,,,,,67.5,B
1,Shannon Terry,,F,ON,Masters 1,Raw,95.92,84+,,,,,-87.5,-90,90,90,,,,,90,B
1,Pamela King,,F,ON,Masters 3,Raw,75.32,76,,,,,67.5,70,72.5,72.5,,,,,72.5,B
1,Linda Rousseau,,F,ON,Masters 3,Raw,82.55,84,,,,,55,60,-65,60,,,,,60,B
1,Zachary Vandenburg,,M,ON,Sub-Juniors,Raw,49.81,53,,,,,62.5,67.5,70,70,,,,,70,B
1,Michael Sanchez #2,,M,ON,Juniors,Raw,72.68,74,,,,,155,160,165,165,,,,,165,B
1,Leunard Gervalla,,M,ON,Juniors,Raw,117.79,120,,,,,220,230,235,235,,,,,235,B
1,Muhammad Haider,,M,ON,Juniors,Raw,130.31,120+,,,,,172.5,185,190,190,,,,,190,B
1,Evgeny Glukhov,,M,ON,Open,Raw,65.53,66,,,,,150,157.5,-162.5,157.5,,,,,157.5,B
1,Kelvin Suen,,M,ON,Open,Raw,67.59,74,,,,,122.5,132.5,-140,132.5,,,,,132.5,B
1,Garrett Cartwright-Bentley,,M,ON,Open,Raw,130.46,120+,,,,,195,205,212.5,212.5,,,,,212.5,B
1,David Holmes,,M,ON,Masters 2,Raw,103.61,105,,,,,170,185,-190,185,,,,,185,B
1,John Beres,,M,ON,Masters 2,Raw,115.44,120,,,,,115,-125,127.5,127.5,,,,,127.5,B
1,Angel Yau-Vandenburg,,F,ON,Open,Single-ply,52.64,57,,,,,-70,70,-75,70,,,,,70,B
1,Lisanne Glavin,,F,ON,Masters 2,Single-ply,68.31,69,,,,,70,75,77.5,77.5,,,,,77.5,B
1,Heidi Schraft,,F,ON,Masters 3,Single-ply,49.55,52,,,,,65,67.5,72.5,72.5,,,,,72.5,B
1,Janine Wheeler,,F,ON,Masters 3,Single-ply,75.07,76,,,,,75,80,85,85,,,,,85,B
1,Linda Rousseau,,F,ON,Masters 3,Single-ply,82.69,84,,,,,75,80,85,85,,,,,85,B
1,Garrett Cartwright-Bentley,,M,ON,Open,Single-ply,130.04,120+,,,,,315,322,,322,,,,,322,B
1,Gary Lacoursiere,,M,ON,Masters 2,Single-ply,73.87,74,,,,,125,127.5,-170.5,127.5,,,,,127.5,B
DQ,Greg Holmes,,M,ON,Masters 2,Single-ply,81.17,83,,,,,-177.5,-185,-185,,,,,,,B
1,Barry Antoniow,,M,ON,Masters 2,Single-ply,91.36,93,,,,,228,231.5,-280.5,231.5,,,,,231.5,B
1,David Holmes,,M,ON,Masters 2,Single-ply,103.96,105,,,,,180,200,-222.5,200,,,,,200,B
1,John Beres,,M,ON,Masters 2,Single-ply,115.12,120,,,,,140,-180,-180,140,,,,,140,B
1,Martin Heenan,,M,ON,Masters 3,Single-ply,100.72,105,,,,,-107.5,110,120,120,,,,,120,B
